<?xml version="1.0" encoding="utf-8"?>
<COLLADA xmlns="http://www.collada.org/2005/11/COLLADASchema" version="1.4.1" xmlns:xsi="http://www.w3.org/2001/XMLSchema-instance">
  <asset>
    <contributor>
      <author>Blender User</author>
      <authoring_tool>Blender 2.79.0 commit date:2018-03-22, commit time:14:10, hash:f4dc9f9d68b</authoring_tool>
    </contributor>
    <created>2018-09-02T23:53:38</created>
    <modified>2018-09-02T23:53:38</modified>
    <unit name="meter" meter="1"/>
    <up_axis>Z_UP</up_axis>
  </asset>
  <library_images>
    <image id="sphere_bmp" name="sphere_bmp">
      <init_from>sphere.bmp</init_from>
    </image>
  </library_images>
  <library_effects>
    <effect id="Material_001-effect">
      <profile_COMMON>
        <newparam sid="sphere_bmp-surface">
          <surface type="2D">
            <init_from>sphere_bmp</init_from>
          </surface>
        </newparam>
        <newparam sid="sphere_bmp-sampler">
          <sampler2D>
            <source>sphere_bmp-surface</source>
          </sampler2D>
        </newparam>
        <technique sid="common">
          <phong>
            <emission>
              <color sid="emission">0 0 0 1</color>
            </emission>
            <ambient>
              <color sid="ambient">0 0 0 1</color>
            </ambient>
            <diffuse>
              <texture texture="sphere_bmp-sampler"/>
            </diffuse>
            <specular>
              <color sid="specular">0.5 0.5 0.5 1</color>
            </specular>
            <shininess>
              <float sid="shininess">50</float>
            </shininess>
            <index_of_refraction>
              <float sid="index_of_refraction">1</float>
            </index_of_refraction>
          </phong>
        </technique>
      </profile_COMMON>
    </effect>
  </library_effects>
  <library_materials>
    <material id="Material_001-material" name="Material_001">
      <instance_effect url="#Material_001-effect"/>
    </material>
  </library_materials>
  <library_geometries>
    <geometry id="Sphere-mesh" name="Sphere">
      <mesh>
        <source id="Sphere-mesh-positions">
          <float_array id="Sphere-mesh-positions-array" count="1446">0 0.1950903 0.9807853 0 0.3826835 0.9238795 0 0.5555703 0.8314696 0 0.7071068 0.7071068 0 0.8314697 0.5555702 0 0.9238795 0.3826834 0 0.9807853 0.1950903 0 1 0 0 0.9807853 -0.1950902 0 0.5555702 -0.8314697 0.03806018 0.1913416 0.9807853 0.07465791 0.3753303 0.9238795 0.1083864 0.5448951 0.8314696 0.1379497 0.6935199 0.7071068 0.1622117 0.8154932 0.5555702 0.18024 0.9061274 0.3826834 0.1913418 0.9619397 0.1950903 0.1950904 0.9807853 0 0.1913418 0.9619398 -0.1950902 0.18024 0.9061275 -0.3826833 0.1622117 0.8154932 -0.5555702 0.1379497 0.6935199 -0.7071068 0.1083864 0.5448951 -0.8314697 0.07465785 0.3753301 -0.9238796 0.03806018 0.1913415 -0.9807853 0.07465791 0.1802399 0.9807853 0.1464467 0.3535534 0.9238795 0.2126076 0.5132799 0.8314696 0.2705982 0.6532814 0.7071068 0.3181897 0.7681777 0.5555702 0.3535535 0.8535533 0.3826834 0.3753304 0.9061273 0.1950903 0.3826835 0.9238795 0 0.3753304 0.9061273 -0.1950902 0.3535535 0.8535534 -0.3826833 0.3181897 0.7681777 -0.5555702 0.2705982 0.6532814 -0.7071068 0.2126076 0.5132799 -0.8314697 0.1464467 0.3535532 -0.9238796 0.07465785 0.1802397 -0.9807853 0.1083865 0.1622115 0.9807853 0.2126077 0.3181896 0.9238795 0.3086584 0.4619397 0.8314696 0.3928477 0.5879377 0.7071068 0.4619399 0.6913416 0.5555702 0.5132801 0.7681776 0.3826834 0.5448952 0.815493 0.1950903 0.5555704 0.8314695 0 0.5448952 0.815493 -0.1950902 0.5132801 0.7681777 -0.3826833 0.4619399 0.6913416 -0.5555702 0.3928477 0.5879377 -0.7071068 0.3086584 0.4619396 -0.8314697 0.2126076 0.3181895 -0.9238796 0.1083864 0.1622114 -0.9807853 0.1379499 0.1379496 0.9807853 0.2705983 0.2705979 0.9238795 0.3928477 0.3928474 0.8314696 0.5000002 0.4999999 0.7071068 0.587938 0.5879377 0.5555702 0.6532816 0.6532813 0.3826834 0.6935201 0.6935197 0.1950903 0.707107 0.7071066 0 0.6935201 0.6935197 -0.1950902 0.6532816 0.6532814 -0.3826833 0.587938 0.5879377 -0.5555702 0.5000002 0.4999999 -0.7071068 0.3928477 0.3928473 -0.8314697 0.2705982 0.2705979 -0.9238796 0.1379497 0.1379494 -0.9807853 0.1622118 0.1083862 0.9807853 0.3181899 0.2126074 0.9238795 0.46194 0.3086581 0.8314696 0.587938 0.3928473 0.7071068 0.6913419 0.4619396 0.5555702 0.7681779 0.5132798 0.3826834 0.8154933 0.5448948 0.1950903 0.8314698 0.55557 0 0.8154933 0.5448948 -0.1950902 0.7681779 0.5132799 -0.3826833 0.6913419 0.4619396 -0.5555702 0.587938 0.3928473 -0.7071068 0.4619399 0.3086581 -0.8314697 0.3181898 0.2126073 -0.9238796 0.1622117 0.108386 -0.9807853 0.1802402 0.07465761 0.9807853 0.3535537 0.1464464 0.9238795 0.5132802 0.2126073 0.8314696 0.6532817 0.2705978 0.7071068 0.768178 0.3181894 0.5555702 0.8535535 0.3535532 0.3826834 0.9061275 0.3753299 0.1950903 0.9238798 0.3826832 0 0.9061275 0.3753299 -0.1950902 0.8535535 0.3535532 -0.3826833 0.768178 0.3181894 -0.5555702 0.6532817 0.2705978 -0.7071068 0.5132802 0.2126072 -0.8314697 0.3535535 0.1464464 -0.9238796 0.18024 0.07465755 -0.9807853 0.1913419 0.03805989 0.9807853 0.3753306 0.07465755 0.9238795 0.5448954 0.108386 0.8314696 0.6935201 0.1379494 0.7071068 0.8154934 0.1622114 0.5555702 0.9061276 0.1802397 0.3826834 0.9619398 0.1913413 0.1950903 0.9807855 0.1950899 0 0.9619398 0.1913413 -0.1950902 0.9061276 0.1802397 -0.3826833 0.8154934 0.1622114 -0.5555702 0.6935201 0.1379494 -0.7071068 0.5448953 0.108386 -0.8314697 0.3753304 0.07465755 -0.9238796 0.1913416 0.03805989 -0.9807853 0.1950906 -3.26636e-7 0.9807853 0.3826837 -3.19185e-7 0.9238795 0.5555705 -3.11735e-7 0.8314696 0.707107 -3.19185e-7 0.7071068 0.8314698 -3.34087e-7 0.5555702 0.9238797 -2.74482e-7 0.3826834 0.9807853 -3.93691e-7 0.1950903 1 -3.7879e-7 0 0.9807853 -3.93691e-7 -0.1950902 0.9238797 -2.29778e-7 -0.3826833 0.8314698 -3.34087e-7 -0.5555702 0.707107 -3.19185e-7 -0.7071068 0.5555704 -3.41537e-7 -0.8314697 0.3826835 -3.04284e-7 -0.9238796 0.1950904 -3.08009e-7 -0.9807853 0.1913419 -0.0380606 0.9807853 0.3753305 -0.07465821 0.9238795 0.5448954 -0.1083867 0.8314696 0.6935201 -0.13795 0.7071068 0.8154933 -0.162212 0.5555702 0.9061276 -0.1802402 0.3826834 0.9619397 -0.1913421 0.1950903 0.9807855 -0.1950907 0 0.9619397 -0.1913421 -0.1950902 0.9061276 -0.1802402 -0.3826833 0.8154933 -0.162212 -0.5555702 0.6935201 -0.13795 -0.7071068 0.5448952 -0.1083867 -0.8314697 0.3753304 -0.07465815 -0.9238796 0.1913416 -0.03806048 -0.9807853 0.1802402 -0.07465827 0.9807853 0.3535536 -0.146447 0.9238795 0.5132802 -0.2126079 0.8314696 0.6532816 -0.2705984 0.7071068 0.7681778 -0.31819 0.5555702 0.8535535 -0.3535537 0.3826834 0.9061273 -0.3753306 0.1950903 0.9238797 -0.3826839 0 0.9061273 -0.3753306 -0.1950902 0.8535535 -0.3535537 -0.3826833 0.7681778 -0.31819 -0.5555702 0.6532816 -0.2705984 -0.7071068 0.51328 -0.2126079 -0.8314697 0.3535535 -0.146447 -0.9238796 0.18024 -0.07465815 -0.9807853 0.1622118 -0.1083868 0.9807853 0.3181899 -0.2126079 0.9238795 0.4619399 -0.3086587 0.8314696 0.587938 -0.3928478 0.7071068 0.6913418 -0.4619402 0.5555702 0.7681779 -0.5132803 0.3826834 0.8154931 -0.5448954 0.1950903 0.8314697 -0.5555707 0 0.8154931 -0.5448954 -0.1950902 0.7681779 -0.5132803 -0.3826833 0.6913418 -0.4619402 -0.5555702 0.587938 -0.3928478 -0.7071068 0.4619398 -0.3086587 -0.8314697 0.3181897 -0.2126079 -0.9238796 0.1622117 -0.1083867 -0.9807853 0.1379498 -0.1379502 0.9807853 0.2705982 -0.2705985 0.9238795 0.3928476 -0.3928479 0.8314696 0.5000001 -0.5000004 0.7071068 0.5879378 -0.5879382 0.5555702 0.6532816 -0.6532818 0.3826834 0.6935198 -0.6935202 0.1950903 0.7071068 -0.7071073 0 0.6935198 -0.6935202 -0.1950902 0.6532816 -0.6532818 -0.3826833 0.5879378 -0.5879382 -0.5555702 0.5000001 -0.5000004 -0.7071068 0.3928475 -0.3928478 -0.8314697 0.2705981 -0.2705984 -0.9238796 0.1379497 -0.13795 -0.9807853 0.1083865 -0.1622121 0.9807853 0.2126076 -0.3181901 0.9238795 0.3086584 -0.4619402 0.8314696 0.3928475 -0.5879382 0.7071068 0.4619397 -0.6913421 0.5555702 0.5132801 -0.7681781 0.3826834 0.544895 -0.8154934 0.1950903 0.5555703 -0.8314701 0 0.544895 -0.8154934 -0.1950902 0.5132801 -0.7681781 -0.3826833 0.4619397 -0.6913421 -0.5555702 0.3928475 -0.5879382 -0.7071068 0.3086583 -0.4619401 -0.8314697 0.2126075 -0.31819 -0.9238796 0.1083863 -0.162212 -0.9807853 0 -3.25841e-7 -1 0.07465791 -0.1802405 0.9807853 0.1464467 -0.3535538 0.9238795 0.2126076 -0.5132804 0.8314696 0.270598 -0.6532818 0.7071068 0.3181896 -0.7681781 0.5555702 0.3535535 -0.8535537 0.3826834 0.3753302 -0.9061276 0.1950903 0.3826834 -0.92388 0 0.3753302 -0.9061276 -0.1950902 0.3535535 -0.8535537 -0.3826833 0.3181896 -0.7681781 -0.5555702 0.270598 -0.6532818 -0.7071068 0.2126075 -0.5132803 -0.8314697 0.1464466 -0.3535537 -0.9238796 0.07465785 -0.1802403 -0.9807853 0.03806018 -0.1913422 0.9807853 0.07465785 -0.3753307 0.9238795 0.1083864 -0.5448955 0.8314696 0.1379497 -0.6935203 0.7071068 0.1622115 -0.8154934 0.5555702 0.18024 -0.9061278 0.3826834 0.1913416 -0.9619399 0.1950903 0.1950902 -0.9807857 0 0.1913416 -0.9619399 -0.1950902 0.18024 -0.9061278 -0.3826833 0.1622115 -0.8154934 -0.5555702 0.1379497 -0.6935203 -0.7071068 0.1083863 -0.5448954 -0.8314697 0.07465779 -0.3753306 -0.9238796 0.03806012 -0.1913419 -0.9807853 0 -0.1950908 0.9807853 0 -0.3826838 0.9238795 0 -0.5555707 0.8314696 0 -0.7071071 0.7071068 0 -0.8314697 0.5555702 0 -0.9238799 0.3826834 0 -0.9807854 0.1950903 0 -1 0 0 -0.9807854 -0.1950902 0 -0.9238799 -0.3826833 0 -0.8314697 -0.5555702 0 -0.7071071 -0.7071068 0 -0.5555705 -0.8314697 0 -0.3826837 -0.9238796 0 -0.1950906 -0.9807853 -0.03806018 -0.1913422 0.9807853 -0.07465779 -0.3753306 0.9238795 -0.1083863 -0.5448955 0.8314696 -0.1379497 -0.6935202 0.7071068 -0.1622117 -0.8154932 0.5555702 -0.1802399 -0.9061278 0.3826834 -0.1913416 -0.9619398 0.1950903 -0.1950904 -0.9807856 0 -0.1913416 -0.9619398 -0.1950902 -0.1802399 -0.9061278 -0.3826833 -0.1622117 -0.8154932 -0.5555702 -0.1379497 -0.6935202 -0.7071068 -0.1083863 -0.5448954 -0.8314697 -0.07465779 -0.3753305 -0.9238796 -0.03806012 -0.1913419 -0.9807853 -0.07465791 -0.1802404 0.9807853 -0.1464466 -0.3535537 0.9238795 -0.2126075 -0.5132804 0.8314696 -0.2705981 -0.6532818 0.7071068 -0.3181896 -0.7681778 0.5555702 -0.3535533 -0.8535537 0.3826834 -0.3753303 -0.9061275 0.1950903 -0.3826836 -0.9238798 0 -0.3753303 -0.9061275 -0.1950902 -0.3535533 -0.8535537 -0.3826833 -0.3181896 -0.7681778 -0.5555702 -0.2705981 -0.6532818 -0.7071068 -0.2126075 -0.5132802 -0.8314697 -0.1464465 -0.3535536 -0.9238796 -0.07465779 -0.1802402 -0.9807853 -0.1083865 -0.1622121 0.9807853 -0.2126075 -0.31819 0.9238795 -0.3086583 -0.4619402 0.8314696 -0.3928475 -0.5879381 0.7071068 -0.4619397 -0.6913417 0.5555702 -0.5132799 -0.7681781 0.3826834 -0.5448951 -0.8154932 0.1950903 -0.5555704 -0.8314698 0 -0.5448951 -0.8154932 -0.1950902 -0.5132799 -0.7681781 -0.3826833 -0.4619397 -0.6913417 -0.5555702 -0.3928475 -0.5879381 -0.7071068 -0.3086583 -0.46194 -0.8314697 -0.2126075 -0.3181899 -0.9238796 -0.1083863 -0.1622118 -0.9807853 -2.30405e-7 -5.56246e-7 1 -0.1379498 -0.1379501 0.9807853 -0.2705981 -0.2705984 0.9238795 -0.3928475 -0.3928478 0.8314696 -0.5 -0.5000002 0.7071068 -0.5879377 -0.5879378 0.5555702 -0.6532814 -0.6532818 0.3826834 -0.6935198 -0.6935199 0.1950903 -0.7071069 -0.707107 0 -0.6935198 -0.6935199 -0.1950902 -0.6532814 -0.6532818 -0.3826833 -0.5879377 -0.5879378 -0.5555702 -0.5 -0.5000002 -0.7071068 -0.3928474 -0.3928477 -0.8314697 -0.270598 -0.2705982 -0.9238796 -0.1379496 -0.13795 -0.9807853 -0.1622118 -0.1083868 0.9807853 -0.3181896 -0.2126078 0.9238795 -0.4619398 -0.3086586 0.8314696 -0.5879378 -0.3928477 0.7071068 -0.6913415 -0.4619398 0.5555702 -0.7681777 -0.5132803 0.3826834 -0.8154929 -0.5448951 0.1950903 -0.8314697 -0.5555704 0 -0.8154929 -0.5448951 -0.1950902 -0.7681777 -0.5132803 -0.3826833 -0.6913415 -0.4619398 -0.5555702 -0.5879378 -0.3928477 -0.7071068 -0.4619397 -0.3086585 -0.8314697 -0.3181896 -0.2126077 -0.9238796 -0.1622115 -0.1083866 -0.9807853 -0.18024 -0.07465821 0.9807853 -0.3535534 -0.1464468 0.9238795 -0.51328 -0.2126078 0.8314696 -0.6532815 -0.2705982 0.7071068 -0.7681775 -0.3181897 0.5555702 -0.8535534 -0.3535537 0.3826834 -0.9061272 -0.3753302 0.1950903 -0.9238795 -0.3826835 0 -0.9061272 -0.3753302 -0.1950902 -0.8535534 -0.3535537 -0.3826833 -0.7681775 -0.3181897 -0.5555702 -0.6532815 -0.2705982 -0.7071068 -0.5132799 -0.2126077 -0.8314697 -0.3535532 -0.1464468 -0.9238796 -0.1802399 -0.07465809 -0.9807853 -0.1913418 -0.03806048 0.9807853 -0.3753302 -0.07465809 0.9238795 -0.5448951 -0.1083866 0.8314696 -0.6935199 -0.1379498 0.7071068 -0.8154928 -0.1622117 0.5555702 -0.9061274 -0.1802402 0.3826834 -0.9619394 -0.1913416 0.1950903 -0.9807852 -0.1950904 0 -0.9619394 -0.1913416 -0.1950902 -0.9061274 -0.1802402 -0.3826833 -0.8154928 -0.1622117 -0.5555702 -0.6935199 -0.1379498 -0.7071068 -0.544895 -0.1083866 -0.8314697 -0.3753301 -0.07465803 -0.9238796 -0.1913416 -0.03806042 -0.9807853 -0.1950904 -3.11735e-7 0.9807853 -0.3826833 -2.81932e-7 0.9238795 -0.5555702 -2.81932e-7 0.8314696 -0.7071067 -1.85075e-7 0.7071068 -0.8314692 -1.40371e-7 0.5555702 -0.9238795 -3.19185e-7 0.3826834 -0.9807848 0 0.1950903 -0.9999998 -1.40371e-7 0 -0.9807848 0 -0.1950902 -0.9238795 -3.19185e-7 -0.3826833 -0.8314692 -1.40371e-7 -0.5555702 -0.7071067 -1.85075e-7 -0.7071068 -0.5555701 -2.59581e-7 -0.8314697 -0.3826832 -2.5213e-7 -0.9238796 -0.1950902 -3.1546e-7 -0.9807853 -0.1913418 0.03805989 0.9807853 -0.3753302 0.07465749 0.9238795 -0.5448951 0.108386 0.8314696 -0.6935198 0.1379495 0.7071068 -0.8154927 0.1622114 0.5555702 -0.9061273 0.1802396 0.3826834 -0.9619392 0.1913415 0.1950903 -0.980785 0.1950901 0 -0.9619392 0.1913415 -0.1950902 -0.9061273 0.1802396 -0.3826833 -0.8154927 0.1622114 -0.5555702 -0.6935198 0.1379495 -0.7071068 -0.5448949 0.108386 -0.8314697 -0.3753301 0.07465749 -0.9238796 -0.1913416 0.03805989 -0.9807853 -0.18024 0.07465755 0.9807853 -0.3535533 0.1464463 0.9238795 -0.5132799 0.2126072 0.8314696 -0.6532813 0.2705978 0.7071068 -0.7681773 0.3181893 0.5555702 -0.8535533 0.3535531 0.3826834 -0.9061269 0.37533 0.1950903 -0.9238792 0.3826832 0 -0.9061269 0.37533 -0.1950902 -0.8535533 0.3535531 -0.3826833 -0.7681773 0.3181893 -0.5555702 -0.6532813 0.2705978 -0.7071068 -0.5132797 0.2126072 -0.8314697 -0.3535532 0.1464462 -0.9238796 -0.1802399 0.07465744 -0.9807853 -0.1622117 0.108386 0.9807853 -0.3181896 0.2126072 0.9238795 -0.4619396 0.308658 0.8314696 -0.5879377 0.3928472 0.7071068 -0.6913412 0.4619394 0.5555702 -0.7681776 0.5132796 0.3826834 -0.8154926 0.5448947 0.1950903 -0.8314692 0.55557 0 -0.8154926 0.5448947 -0.1950902 -0.7681776 0.5132796 -0.3826833 -0.6913412 0.4619394 -0.5555702 -0.5879377 0.3928472 -0.7071068 -0.4619395 0.3086579 -0.8314697 -0.3181895 0.2126072 -0.9238796 -0.1622115 0.108386 -0.9807853 -0.1379497 0.1379494 0.9807853 -0.2705979 0.2705977 0.9238795 -0.3928473 0.3928471 0.8314696 -0.4999998 0.4999997 0.7071068 -0.5879373 0.5879374 0.5555702 -0.6532814 0.6532811 0.3826834 -0.6935194 0.6935194 0.1950903 -0.7071064 0.7071064 0 -0.6935194 0.6935194 -0.1950902 -0.6532814 0.6532811 -0.3826833 -0.5879373 0.5879374 -0.5555702 -0.4999998 0.4999997 -0.7071068 -0.3928472 0.3928471 -0.8314697 -0.2705979 0.2705976 -0.9238796 -0.1379496 0.1379493 -0.9807853 -0.1083864 0.1622114 0.9807853 -0.2126074 0.3181893 0.9238795 -0.3086581 0.4619394 0.8314696 -0.3928473 0.5879375 0.7071068 -0.4619393 0.6913412 0.5555702 -0.5132799 0.7681773 0.3826834 -0.5448946 0.8154925 0.1950903 -0.5555698 0.8314691 0 -0.5448946 0.8154925 -0.1950902 -0.5132799 0.7681773 -0.3826833 -0.4619393 0.6913412 -0.5555702 -0.3928473 0.5879375 -0.7071068 -0.3086581 0.4619393 -0.8314697 -0.2126073 0.3181892 -0.9238796 -0.1083863 0.1622112 -0.9807853 -0.07465785 0.1802397 0.9807853 -0.1464465 0.353553 0.9238795 -0.2126073 0.5132796 0.8314696 -0.2705979 0.6532812 0.7071068 -0.3181892 0.7681771 0.5555702 -0.3535533 0.8535529 0.3826834 -0.3753298 0.9061266 0.1950903 -0.382683 0.9238789 0 -0.3753298 0.9061266 -0.1950902 -0.3535533 0.8535529 -0.3826833 -0.3181892 0.7681771 -0.5555702 -0.2705979 0.6532812 -0.7071068 -0.2126073 0.5132794 -0.8314697 -0.1464465 0.3535529 -0.9238796 -0.07465779 0.1802396 -0.9807853 -0.03806012 0.1913415 0.9807853 -0.07465773 0.3753299 0.9238795 -0.1083862 0.5448946 0.8314696 -0.1379495 0.6935195 0.7071068 -0.1622112 0.8154924 0.5555702 -0.1802399 0.906127 0.3826834 -0.1913413 0.9619389 0.1950903 -0.1950899 0.9807845 0 -0.1913413 0.9619389 -0.1950902 -0.1802399 0.906127 -0.3826833 -0.1622112 0.8154924 -0.5555702 -0.1379495 0.6935195 -0.7071068 -0.1083862 0.5448945 -0.8314697 -0.07465767 0.3753298 -0.9238796 -0.03806012 0.1913413 -0.9807853 0 0.923879 -0.3826833 2.72185e-7 0.8314688 -0.5555702 1.52975e-7 0.7071064 -0.7071068 0 0.3826829 -0.9238796 0 0.1950899 -0.9807853</float_array>
          <technique_common>
            <accessor source="#Sphere-mesh-positions-array" count="482" stride="3">
              <param name="X" type="float"/>
              <param name="Y" type="float"/>
              <param name="Z" type="float"/>
            </accessor>
          </technique_common>
        </source>
        <source id="Sphere-mesh-normals">
          <float_array id="Sphere-mesh-normals-array" count="2880">0.4913439 -0.5987048 -0.6325614 -0.6088255 0.1846866 0.7715067 -0.682463 0.5600834 0.4696285 0.04637944 -0.4708896 0.8809723 -0.7400253 -0.6073218 -0.2890034 -0.2790148 -0.08463829 -0.9565496 -0.8777151 -0.4691484 0.09755092 -0.009653866 -0.09801214 -0.9951384 -0.00965178 -0.09801244 0.9951384 0.7693232 -0.6313681 0.09755122 -0.08464157 0.279015 0.9565492 0.0938344 -0.9527184 0.289003 0.04637879 0.4708892 -0.8809725 0.08653777 -0.8786132 -0.4696276 0.1846851 0.6088269 -0.7715058 -0.2248289 0.7411593 -0.6325622 -0.2999122 -0.5610983 -0.771506 -0.2248286 -0.7411589 -0.6325628 0.74116 -0.2248284 0.6325615 0.06236076 0.6331587 -0.7715058 0.4161789 0.7786167 -0.4696289 -0.3001726 -0.3657643 0.8809727 -0.9161058 -0.2778978 0.2890034 0.2901662 0.02857857 -0.9565495 -0.6313672 0.769324 0.09755045 -0.02859008 -0.09424555 -0.9951384 -0.02858823 -0.09424579 0.9951384 0.4691484 0.8777149 -0.09755104 0.2790169 0.08463877 -0.956549 0.9527186 0.09383469 0.2890023 0.4172966 0.2230498 -0.8809724 0.4161795 0.7786157 0.46963 0.9523761 -0.2889006 -0.09755104 -0.04642397 -0.08685719 -0.9951385 -0.04642862 -0.08685743 0.9951383 0.7693235 0.6313676 0.09755146 -0.2571421 0.1374452 0.9565495 -0.9161061 0.2778978 -0.2890028 -0.04637873 -0.4708895 -0.8809722 -0.7786166 0.416179 -0.4696288 -0.6331591 -0.06236135 -0.7715056 0.5987045 0.4913439 -0.6325616 0.3651019 0.683057 0.6325613 0.4918057 -0.4036148 0.7715066 0.7786163 -0.4161784 -0.46963 0.4527933 0.1373533 -0.8809724 -0.6073225 0.7400249 0.2890028 -0.08463716 -0.2790154 -0.9565496 -0.4913432 -0.5987046 -0.6325621 0.6830568 -0.3651021 -0.6325615 0.6088265 -0.1846855 0.7715061 -0.2562828 -0.8448483 -0.4696281 0.04637777 0.4708893 0.8809724 0.4512816 0.8442882 -0.2890025 -0.0846377 0.2790156 -0.9565495 0.4691476 -0.8777155 -0.09755033 -0.06247645 -0.07613104 -0.9951387 -0.06247776 -0.0761311 0.9951385 -0.7693238 -0.6313676 -0.09754979 0.2790157 0.08463841 0.9565494 0.6073225 -0.740025 -0.2890025 -0.4708897 0.04637873 0.8809723 0.8448479 -0.2562815 0.4696296 0.6088268 0.1846854 0.7715058 -0.07613044 -0.06247895 -0.9951385 -0.07613128 -0.06247925 0.9951384 0.877715 0.4691484 -0.09755164 0.2253852 -0.1849702 0.9565498 -0.2778977 -0.9161058 0.2890035 0.3001739 0.3657638 -0.8809725 0.2562811 -0.8448479 0.4696297 -0.4036154 -0.4918059 -0.7715061 -0.598704 0.4913439 0.632562 -0.5987041 -0.4913434 0.6325623 0.06236416 -0.6331579 0.7715062 -0.8448485 -0.2562825 -0.4696281 0.3657639 -0.3001748 -0.8809722 0.2778981 0.9161059 0.2890028 -0.2901666 0.02857899 -0.9565494 -0.7693238 0.6313675 -0.09755104 0.4913444 -0.5987042 0.6325615 0.4036154 -0.4918063 -0.771506 -0.5600831 0.6824632 -0.4696285 -0.04637622 -0.4708885 0.8809731 0.09383469 0.9527184 0.2890029 0.2571411 -0.1374453 -0.9565498 -0.4691486 -0.8777149 -0.09755015 -0.08685678 -0.04642611 -0.9951385 -0.08685815 -0.04642623 0.9951384 -0.8777149 0.4691486 0.09755128 0.02857697 0.2901659 0.9565497 0.740025 -0.6073225 0.2890027 0.1373524 -0.4527935 0.8809725 0.5600824 0.6824631 0.4696295 0.4036153 0.491806 -0.7715061 -0.6830563 -0.3651012 -0.6325625 -0.4691486 -0.877715 0.09754997 -0.2901666 -0.02857875 -0.9565494 -0.9161061 -0.2778976 -0.2890031 -0.4708895 -0.04637813 -0.8809723 -0.4161789 0.7786169 0.4696287 -0.1846867 0.6088268 0.7715055 0.2248281 0.7411598 0.6325618 -0.7707797 -0.0759148 0.6325628 0.4918068 0.4036151 0.7715057 0.8786123 -0.08653646 0.4696298 0.2230505 0.4172966 -0.8809722 0.7400245 0.6073229 0.2890033 -0.1849697 -0.2253863 0.9565497 -0.4691478 0.8777153 -0.09755122 -0.09424591 -0.02858912 -0.9951384 -0.09424728 -0.02858901 0.9951382 -0.5610974 -0.2999135 0.7715061 0.8448481 0.2562806 0.4696298 0.4708894 -0.04637831 0.8809724 -0.7400243 0.6073231 -0.2890028 -0.279016 0.08463758 -0.9565494 0.09755432 -0.9904379 0.09754949 -0.09801149 -0.009653329 -0.9951385 -0.09801197 -0.009653627 0.9951385 0.2889003 0.9523761 -0.09755188 0.02857589 0.2901666 -0.9565495 0.4512813 0.8442881 0.2890036 0.3001742 -0.365764 -0.8809723 0.08653587 0.878612 -0.4696304 -0.2999137 -0.5610978 0.7715058 0.07591545 0.7707808 -0.6325615 -0.3651009 -0.6830564 0.6325626 -0.7400244 -0.6073226 0.2890036 -0.1373512 -0.4527933 0.8809728 -0.5600831 -0.6824632 -0.4696285 -0.1846853 -0.6088271 0.7715057 -0.7707796 -0.0759148 -0.6325628 0.4913439 0.5987047 0.6325613 -0.06236034 -0.6331597 0.7715051 -0.8786127 0.08653646 0.4696287 0.04638278 -0.4708893 -0.8809722 0.09383511 0.9527185 -0.2890028 0.08463901 -0.2790152 0.9565494 -0.9904384 0.09755015 0.09754955 -0.09801256 0.009653508 -0.9951384 -0.09801387 0.009653568 0.9951383 -0.09754747 0.9904385 -0.09755104 0.2571414 -0.1374447 0.9565498 -0.3001729 0.3657638 0.8809728 0.9161065 -0.2778972 0.2890022 0.225388 0.1849699 -0.9565492 -0.8777146 0.4691489 -0.09755122 -0.09424412 0.02858895 -0.9951386 -0.09424537 0.02858901 0.9951384 -0.469148 0.8777153 0.09755098 0.1849695 -0.2253869 0.9565496 0.9527186 -0.09383499 -0.289002 -0.4172973 0.2230495 0.8809721 0.2562822 0.8448483 0.4696283 -0.0623607 0.6331588 0.7715058 -0.7411596 0.2248284 -0.6325621 0.7411599 0.2248281 0.6325617 -0.5610973 -0.2999134 -0.7715063 -0.5600826 -0.6824636 0.4696286 -0.3657644 -0.3001739 -0.8809723 -0.7786167 -0.41618 0.4696279 0.4918053 -0.4036152 -0.7715067 -0.4913436 -0.5987036 0.6325627 -0.6830568 0.3651012 0.6325619 -0.4036146 -0.4918065 0.7715062 -0.4161795 0.7786167 -0.4696283 0.4708893 0.04637825 0.8809724 -0.09383463 0.9527186 0.2890028 -0.02857691 0.2901657 0.9565497 -0.9523762 -0.2889004 -0.0975508 -0.08685696 0.04642647 -0.9951384 -0.08685809 0.04642623 0.9951383 0.2889 0.9523763 0.09755086 0.2253863 -0.1849706 -0.9565495 -0.8442887 0.4512804 -0.2890029 -0.4512816 -0.8442876 -0.2890043 0.08463364 -0.2790157 -0.9565498 0.6313672 -0.7693242 -0.09755033 -0.07613259 0.06247913 -0.9951384 -0.07613134 0.06247931 0.9951384 -0.8777155 -0.4691476 -0.09755033 0.2790156 -0.08463853 -0.9565494 -0.9527184 -0.0938338 0.2890032 -0.4172967 -0.2230498 -0.8809723 0.08653569 -0.8786121 0.4696301 -0.6331586 0.06235998 -0.771506 -0.5987039 0.4913439 -0.6325622 0.07591533 -0.770781 0.6325612 0.4036155 0.4918065 0.7715058 -0.8448488 -0.2562816 0.469628 0.4172967 -0.2230491 0.8809725 0.6824629 -0.5600827 -0.4696294 0.1846849 -0.6088263 -0.7715063 0.3651018 0.6830573 -0.6325611 -0.3651011 -0.6830563 -0.6325625 -0.2999127 0.5610978 -0.7715061 -0.6824635 0.5600829 -0.4696283 -0.1373534 -0.4527934 -0.8809722 -0.6073226 -0.7400247 0.2890031 -0.2571383 -0.1374447 0.9565505 -0.2889 0.9523763 -0.0975508 -0.06247681 0.07613122 -0.9951386 -0.06247764 0.07613128 0.9951385 0.9904382 0.09754943 -0.0975511 0.184971 0.2253869 -0.9565492 -0.8442882 -0.4512811 0.2890031 0.4708892 0.04637819 -0.8809725 -0.2790144 0.0846377 0.9565498 0.7693238 0.6313675 -0.09755128 -0.04642802 0.08685731 -0.9951384 -0.04642879 0.08685737 0.9951384 -0.9904383 -0.09754931 -0.09755051 0.1849709 -0.2253867 -0.9565493 -0.9161059 0.2778979 0.2890029 -0.4708899 -0.04637771 0.8809722 -0.4161795 -0.7786166 0.4696284 0.1846853 0.6088268 0.771506 0.2248287 0.7411597 -0.6325619 -0.6830561 -0.3651012 0.6325626 -0.6088266 -0.1846854 0.7715061 0.8786123 0.08653545 0.4696297 -0.3001742 0.3657644 -0.8809722 0.2778978 -0.9161064 -0.2890017 0.6331579 0.06236028 -0.7715065 0.6088265 -0.1846857 -0.771506 -0.2248288 0.7411592 0.6325624 -0.4036149 0.4918065 0.7715061 -0.08653503 0.8786125 0.4696295 -0.2230494 0.4172969 -0.8809724 0.6073228 -0.7400251 0.2890018 -0.257143 0.1374453 -0.9565492 -0.2889008 -0.9523762 0.09755027 -0.0285862 0.09424591 -0.9951385 -0.02858769 0.09424591 0.9951384 -0.09754943 -0.9904384 0.09754943 -0.02857768 -0.2901662 -0.9565495 0.9161064 -0.2778978 -0.289002 0.4708885 -0.04637831 -0.8809728 -0.8786131 0.08653587 -0.4696282 -0.09754961 0.9904382 0.09755092 -0.009653866 0.09801244 -0.9951384 -0.009652912 0.09801244 0.9951384 0.09755021 0.9904384 0.09754931 0.1374468 0.2571423 -0.9565491 -0.4512813 0.8442883 -0.2890029 0.3657643 0.3001748 -0.880972 -0.08653587 0.8786125 -0.4696295 0.2999123 -0.5610979 0.7715063 0.6830569 0.3651015 0.6325616 -0.07591491 0.7707806 0.6325618 -0.2999126 0.5610984 0.7715058 -0.08653116 -0.8786127 0.4696298 0.3657638 0.3001746 0.8809723 0.9527187 -0.09383553 0.2890021 0.2571415 0.137445 0.9565496 0.2248284 -0.7411604 0.6325612 0.07591533 0.7707808 0.6325615 -0.4918065 -0.4036145 0.7715062 -0.4161795 -0.7786165 -0.4696287 -0.4527938 -0.1373535 -0.8809722 -0.9527183 0.09383457 0.2890034 -0.137445 0.2571417 -0.9565497 0.9161064 0.2778971 -0.2890021 0.009653866 0.09801244 -0.9951384 0.009652912 0.09801244 0.9951384 0.09754794 0.9904385 -0.09755116 -0.2571372 -0.1374454 -0.9565507 0.9527188 0.0938341 -0.2890018 -0.137354 0.4527935 -0.8809723 -0.8786132 -0.08653551 0.4696282 -0.1846861 -0.6088267 -0.7715058 0.02858823 0.09424585 0.9951384 0.2889003 -0.9523764 -0.09755033 -0.02857804 -0.290166 0.9565496 0.2778975 0.9161063 -0.2890023 -0.3657643 0.300175 0.8809719 0.5600829 -0.6824625 -0.4696298 0.6088263 0.1846851 -0.7715063 0.2248283 -0.7411605 -0.632561 -0.7411592 -0.224828 0.6325626 -0.608827 0.1846854 -0.7715058 0.6824631 0.5600824 0.4696297 0.3657627 -0.3001749 0.8809726 -0.9527184 0.09383565 -0.2890027 0.2901667 -0.02857857 -0.9565493 -0.9523761 0.2889006 -0.09755104 0.0285862 0.09424591 -0.9951385 0.2999127 -0.5610975 -0.7715064 0.6824631 0.560083 -0.4696288 -0.1373546 0.4527934 0.8809722 0.607323 0.7400245 -0.2890027 0.1849706 0.2253865 0.9565495 -0.6313679 -0.7693236 -0.09755009 0.04642814 0.08685755 -0.9951384 0.04642874 0.08685743 0.9951382 -0.6313678 0.7693234 -0.0975517 -0.08463889 -0.2790149 0.9565495 -0.9527183 -0.09383487 -0.2890033 -0.2230497 0.4172968 0.8809723 0.7786161 0.4161788 0.4696298 -0.1846858 0.6088268 -0.7715058 0.4913438 0.5987048 -0.6325615 -0.4913433 0.5987044 -0.6325622 -0.1374453 0.2571415 0.9565496 -0.6073221 0.740025 -0.2890034 0.4172968 0.2230484 0.8809727 -0.6824632 -0.5600829 0.4696288 0.5610973 0.2999131 0.7715063 -0.77078 0.07591527 0.6325624 -0.77078 0.07591527 -0.6325623 0.1846857 -0.6088262 0.7715063 -0.8448479 0.2562834 0.4696286 -0.4527943 0.1373535 -0.8809719 0.844288 0.4512822 0.2890022 0.2571426 0.1374453 -0.9565493 0.4691485 0.8777151 0.09755092 0.06247687 0.07613122 -0.9951385 0.0624774 0.07613134 0.9951385 0.6313678 0.7693234 -0.09755134 -0.2562828 -0.8448483 0.4696282 -0.4708896 0.04637849 -0.8809722 -0.2778975 0.9161061 -0.2890028 0.08463764 0.2790156 -0.9565494 -0.9904385 0.0975486 -0.09754949 0.07613289 0.06247937 -0.9951382 0.0761317 0.06247919 0.9951384 0.9523761 -0.2889007 0.09755086 -0.2901649 0.02857935 0.9565499 0.4512814 -0.8442885 0.289002 -0.4172971 -0.2230499 0.8809723 0.8448476 -0.2562822 -0.4696297 -0.4918062 -0.4036149 -0.7715061 0.3651012 -0.6830577 -0.632561 0.598704 0.4913437 0.6325622 -0.4036151 0.4918063 -0.771506 0.8442884 0.4512816 -0.289002 -0.3001747 -0.3657634 -0.8809724 0.4161782 -0.7786166 0.4696297 -0.6088262 -0.1846856 -0.7715063 0.6830568 0.3651015 -0.6325617 -0.5987042 -0.4913434 -0.6325622 -0.561098 0.2999126 -0.771506 -0.2562817 0.8448482 -0.4696288 0.452794 -0.1373541 0.8809719 0.6073227 0.7400246 0.2890033 0.2790141 -0.08463793 0.9565498 0.9904382 -0.09754943 0.0975511 0.08685928 0.04642611 -0.9951383 0.08685725 0.04642635 0.9951384 0.6313673 -0.7693238 0.09755057 0.1373531 0.452793 -0.8809726 0.9161062 0.2778979 0.2890021 -0.0285806 0.2901664 -0.9565494 0.9523764 0.2889 0.09755128 0.09424525 0.02858924 -0.9951384 0.09424543 0.02858901 0.9951385 -0.9523764 -0.2888999 0.09755092 0.2253898 0.1849698 0.9565489 -0.09383445 0.9527184 -0.289003 0.2230511 -0.4172971 0.8809719 -0.7786171 -0.4161792 -0.469628 -0.6331582 0.06236135 0.7715062 0.7707806 0.07591545 0.6325615 0.7707806 -0.07591539 -0.6325616 0.5610973 0.2999129 -0.7715064 0.560083 0.6824627 -0.4696293 -0.04637777 0.4708896 0.8809722 -0.6824634 -0.5600832 -0.4696282 0.6331579 0.0623607 0.7715064 0.7707807 0.07591545 -0.6325615 -0.2248286 -0.7411594 0.6325622 -0.6331588 -0.06236135 0.7715058 0.5600825 -0.6824629 0.4696297 0.1373534 -0.4527932 -0.8809724 -0.09383469 -0.9527181 -0.2890043 -0.1374433 -0.2571416 0.9565499 0.6313678 0.7693235 0.09755122 0.09801298 0.009653329 -0.9951383 0.09801411 0.009653389 0.9951382 0.7693232 -0.6313681 -0.09755146 -0.2253886 0.1849701 -0.9565491 0.09383904 -0.9527177 -0.289004 -0.4512815 -0.8442878 0.2890035 0.08463376 0.2790151 0.95655 0.9523763 0.2889 -0.0975508 0.09801191 -0.009653329 -0.9951385 0.09801203 -0.009653389 0.9951385 0.8777151 0.4691484 0.09755146 -0.2253878 -0.1849703 -0.9565492 -0.8442882 0.4512815 0.2890027 0.4527917 0.137354 0.8809732 -0.778617 0.416179 0.4696283 -0.06236076 0.6331589 -0.7715057 0.74116 0.2248281 -0.6325617 -0.7411596 0.2248284 0.6325621 0.6331588 -0.06236022 -0.7715059 -0.844848 0.2562826 -0.4696288 0.1373535 0.4527933 0.8809725 0.2562819 0.8448478 -0.4696296 0.2999131 0.5610977 0.7715061 0.7411599 -0.2248284 -0.6325616 -0.07591575 -0.7707797 -0.6325626 0.561098 -0.2999132 0.7715059 -0.256281 0.8448486 0.4696288 -0.04637873 0.4708895 -0.8809722 -0.7400245 0.6073229 0.2890029 -0.1849704 -0.2253869 -0.9565494 0.09755361 -0.9904381 -0.09754955 0.09424638 -0.02858924 -0.9951384 0.09424757 -0.02858906 0.9951382 -0.9523761 0.2889007 0.0975511 -0.279015 -0.08463758 0.9565497 -0.2778978 0.9161061 0.2890027 -0.4527938 -0.1373532 0.8809722 -0.1849694 0.2253871 -0.9565496 -0.769324 -0.6313673 0.09754985 0.08685916 -0.04642629 -0.9951383 0.08685815 -0.04642629 0.9951383 0.8777145 -0.4691492 -0.09755069 0.2901661 0.02857857 0.9565495 0.8442881 -0.451282 -0.2890021 -0.4172966 0.2230493 -0.8809726 0.08653593 0.8786128 0.4696288 -0.06236135 -0.633158 -0.7715064 0.07591909 -0.7707793 -0.6325628 0.6830573 -0.3651013 0.6325613 0.2999135 0.5610978 -0.7715058 0.6824626 -0.5600827 0.46963 0.4527931 -0.1373535 -0.8809725 0.7400253 0.6073223 -0.2890022 0.598704 -0.4913445 -0.6325616 -0.4913434 0.5987043 0.6325621 0.6331583 -0.06236141 0.7715061 -0.8786131 -0.08653551 -0.4696283 -0.2230499 -0.4172965 0.8809724 0.8442881 -0.4512819 0.2890022 -0.2253814 0.1849703 0.9565507 -0.2889 0.9523762 0.09755164 0.07613277 -0.06247925 -0.9951382 0.07613134 -0.06247931 0.9951384 -0.2889004 -0.9523763 -0.09755015 -0.2253866 -0.1849697 0.9565496 0.7400249 -0.607323 -0.289002 -0.3657636 0.3001747 -0.8809723 -0.08653575 -0.8786134 -0.4696277 0.4918059 0.4036154 -0.7715062 0.06247675 -0.0761311 -0.9951386 0.06247746 -0.0761314 0.9951385 -0.09755015 -0.9904382 -0.09755003 0.1374443 -0.2571409 0.9565499 0.4512808 -0.844289 -0.2890017 0.3001749 0.3657633 0.8809724 0.8448477 0.2562822 -0.4696297 0.5610976 -0.299913 -0.7715061 -0.3651003 0.6830566 0.6325626 -0.3651013 0.6830567 -0.632562 0.06236249 -0.6331583 -0.771506 0.2562819 -0.8448476 -0.4696297 -0.3657642 -0.3001739 0.8809723 -0.8442884 -0.4512808 -0.2890031 0.1374457 0.2571415 0.9565496 0.8777148 -0.4691489 0.09755074 0.365102 -0.6830574 0.6325609 0.4036151 -0.4918065 0.7715058 0.778616 0.4161795 -0.4696295 0.4172963 -0.2230491 -0.8809727 -0.2778976 -0.9161056 -0.2890042 0.1374464 -0.2571423 -0.9565492 0.4691477 -0.8777155 0.09755015 0.04642814 -0.08685737 -0.9951383 0.04642915 -0.08685731 0.9951382 -0.6313676 -0.7693238 0.09755045 0.02858006 -0.2901662 -0.9565495 -0.6073223 -0.7400248 -0.2890037 0.2230479 0.417297 0.8809727 0.4161787 -0.7786164 -0.4696295 -0.5610977 0.2999119 0.7715066 -0.6830565 0.3651011 -0.6325623 -0.7693235 0.6313677 0.09755092 -0.1849704 0.2253867 0.9565495 -0.4512814 0.8442882 0.2890029 -0.4527932 0.1373538 0.8809723 0.8786123 0.08653581 -0.4696298 -0.4918062 0.4036148 -0.7715062 0.5987048 -0.4913444 0.6325609 -0.7411593 -0.224828 -0.6325625 0.0623607 0.6331585 0.7715061 0.8786122 -0.08653664 -0.4696298 -0.2230501 -0.417297 -0.8809721 0.2778978 -0.9161062 0.2890021 -0.290166 -0.02857935 0.9565495 0.2889003 -0.9523763 0.09755021 0.02858614 -0.09424573 -0.9951385 0.02858775 -0.09424591 0.9951384 0.3001746 -0.3657638 0.8809722 -0.07591468 0.77078 -0.6325624 0.0285781 -0.290166 0.9565495 -0.09383147 -0.9527177 0.2890067 0.2901656 -0.02857941 0.9565497 0.9904382 -0.09755098 -0.09755092 0.009653866 -0.09801214 -0.9951384 0.009652912 -0.09801244 0.9951384 -0.9904385 -0.09754937 0.09754961 -0.1374452 -0.257142 -0.9565495 0.7786163 -0.4161789 0.4696295 0.2230501 -0.4172968 -0.8809723 -0.5600827 0.6824636 0.4696285 -0.491806 0.4036151 0.7715062 0.7707806 -0.07591539 0.6325615 -0.07591384 -0.7707811 0.6325611 0.9904382 0.09754931 0.0975511 0.4913444 -0.5987042 -0.6325615 -0.6088269 0.1846854 0.7715058 -0.6824633 0.5600835 0.469628 0.04638129 -0.4708884 0.8809728 -0.7400245 -0.6073224 -0.2890039 -0.2790161 -0.08463811 -0.9565493 -0.8777151 -0.4691483 0.09755021 0.7693235 -0.6313679 0.09755092 -0.08463698 0.279015 0.9565497 0.09383898 -0.9527171 0.2890061 0.0463798 0.4708893 -0.8809724 0.08654069 -0.8786121 -0.4696292 0.1846854 0.6088266 -0.771506 -0.2248277 0.7411596 -0.6325622 -0.2999133 -0.5610975 -0.7715062 -0.2248286 -0.7411594 -0.6325622 0.7411601 -0.2248286 0.6325615 0.06236118 0.6331586 -0.771506 0.4161794 0.7786156 -0.4696303 -0.3001753 -0.365764 0.8809719 -0.9161061 -0.2778975 0.289003 0.2901671 0.02857893 -0.9565492 -0.6313678 0.7693234 0.0975517 0.4691485 0.8777149 -0.09755086 0.279015 0.08463829 -0.9565495 0.9527188 0.0938341 0.2890018 0.4172977 0.2230492 -0.880972 0.4161791 0.7786167 0.4696286 0.9523763 -0.2889 -0.09755074 0.7693238 0.6313672 0.09755176 -0.2571383 0.1374452 0.9565505 -0.916106 0.2778978 -0.2890029 -0.04637974 -0.4708895 -0.8809722 -0.7786169 0.4161791 -0.4696285 -0.6331585 -0.06236016 -0.7715061 0.5987042 0.491344 -0.6325618 0.3651018 0.6830573 0.6325611 0.4918063 -0.4036151 0.7715059 0.7786159 -0.4161798 -0.4696294 0.4527933 0.1373531 -0.8809725 -0.6073222 0.7400249 0.2890034 -0.08464151 -0.2790154 -0.9565491 -0.4913436 -0.5987036 -0.6325627 0.6830573 -0.3651013 -0.6325613 0.6088263 -0.1846858 0.7715063 -0.2562817 -0.8448483 -0.4696288 0.04637819 0.4708895 0.8809724 0.451281 0.8442881 -0.2890036 -0.08463764 0.2790156 -0.9565495 0.4691478 -0.8777155 -0.09755015 -0.769324 -0.6313672 -0.09755039 0.2790147 0.08463776 0.9565497 0.6073228 -0.7400252 -0.2890017 -0.4708896 0.04637849 0.8809722 0.8448476 -0.2562821 0.4696295 0.6088268 0.1846849 0.771506 0.8777155 0.4691475 -0.0975508 0.2253906 -0.1849697 0.9565487 -0.2778984 -0.9161056 0.2890035 0.3001747 0.3657635 -0.8809723 0.2562818 -0.8448478 0.4696295 -0.4036146 -0.4918065 -0.771506 -0.5987039 0.4913439 0.6325622 -0.598704 -0.4913433 0.6325625 0.06236082 -0.6331597 0.7715051 -0.8448486 -0.2562816 -0.4696282 0.3657641 -0.3001751 -0.8809719 0.2778975 0.9161063 0.2890023 -0.2901666 0.02857935 -0.9565493 -0.7693234 0.631368 -0.09755086 0.4913439 -0.5987048 0.6325614 0.4036146 -0.4918056 -0.7715066 -0.5600825 0.6824635 -0.4696288 -0.04637843 -0.4708891 0.8809725 0.09383511 0.9527187 0.2890018 0.2571433 -0.1374455 -0.9565491 -0.4691486 -0.877715 -0.09755003 -0.8777152 0.4691482 0.0975508 0.02858006 0.2901659 0.9565496 0.7400245 -0.6073234 0.2890018 0.1373535 -0.4527938 0.880972 0.5600833 0.6824626 0.4696292 0.4036151 0.4918065 -0.7715059 -0.6830568 -0.3651009 -0.6325621 -0.4691486 -0.8777151 0.09755009 -0.290167 -0.02857887 -0.9565492 -0.9161059 -0.277898 -0.2890034 -0.4708891 -0.04637879 -0.8809725 -0.4161794 0.7786169 0.4696282 -0.1846844 0.6088267 0.7715063 0.2248287 0.7411597 0.6325619 -0.7707803 -0.07591521 0.6325622 0.491806 0.4036151 0.7715061 0.8786123 -0.08653575 0.4696296 0.2230492 0.4172968 -0.8809725 0.7400254 0.6073222 0.2890022 -0.1849712 -0.2253863 0.9565494 -0.4691483 0.8777151 -0.09755086 -0.5610984 -0.2999126 0.7715057 0.8448479 0.256282 0.4696293 0.4708892 -0.04637891 0.8809725 -0.7400246 0.6073229 -0.2890028 -0.2790154 0.08463859 -0.9565494 0.09755361 -0.990438 0.09754961 0.2889001 0.9523764 -0.09755086 0.02857983 0.2901665 -0.9565494 0.4512816 0.8442883 0.2890025 0.3001747 -0.3657635 -0.8809723 0.08653616 0.8786126 -0.469629 -0.2999126 -0.5610981 0.771506 0.07591581 0.7707804 -0.6325619 -0.3651015 -0.6830564 0.6325622 -0.740025 -0.6073223 0.289003 -0.1373538 -0.452793 0.8809725 -0.5600829 -0.6824638 -0.4696279 -0.1846864 -0.6088266 0.7715058 -0.7707803 -0.07591515 -0.6325621 0.4913448 0.5987034 0.632562 -0.06235915 -0.633159 0.7715058 -0.8786134 0.08653581 0.4696277 0.04638016 -0.4708892 -0.8809723 0.09383475 0.9527187 -0.289002 0.08463627 -0.2790152 0.9565497 -0.9904384 0.09754866 0.0975511 -0.09754961 0.9904385 -0.09754854 0.2571421 -0.1374449 0.9565495 -0.3001754 0.3657635 0.8809722 0.9161063 -0.2778978 0.2890018 0.2253872 0.1849706 -0.9565493 -0.8777152 0.4691479 -0.09755074 -0.4691483 0.8777152 0.09755092 0.1849707 -0.2253869 0.9565494 0.9527186 -0.09383553 -0.2890022 -0.4172968 0.2230502 0.8809722 0.256282 0.8448479 0.4696294 -0.06236046 0.6331585 0.7715061 -0.7411596 0.2248282 -0.6325621 0.7411603 0.2248278 0.6325614 -0.5610982 -0.299912 -0.7715061 -0.5600833 -0.6824634 0.469628 -0.3657634 -0.3001754 -0.8809722 -0.7786172 -0.4161788 0.4696282 0.4918058 -0.4036151 -0.7715062 -0.4913432 -0.5987046 0.6325621 -0.6830565 0.3651011 0.6325623 -0.4036154 -0.4918063 0.7715059 -0.4161788 0.7786167 -0.4696289 0.4708896 0.04637849 0.8809723 -0.09383457 0.9527184 0.2890029 -0.02857804 0.2901658 0.9565496 -0.9523765 -0.2888997 -0.09755039 0.2889003 0.9523761 0.09755194 0.2253893 -0.1849704 -0.9565489 -0.8442883 0.4512814 -0.2890027 -0.4512815 -0.8442879 -0.2890036 0.08463984 -0.2790157 -0.9565492 0.6313673 -0.7693238 -0.09755051 -0.877715 -0.4691486 -0.09755074 0.2790154 -0.08463895 -0.9565494 -0.9527184 -0.09383487 0.2890033 -0.4172975 -0.2230498 -0.880972 0.08653581 -0.8786128 0.4696289 -0.6331581 0.06236135 -0.7715063 -0.598704 0.4913439 -0.632562 0.07591539 -0.770781 0.6325611 0.4036154 0.491806 0.771506 -0.8448485 -0.2562823 0.4696279 0.417297 -0.2230496 0.8809723 0.6824626 -0.5600827 -0.46963 0.1846855 -0.6088262 -0.7715063 0.3651019 0.683057 -0.6325613 -0.3651014 -0.6830563 -0.6325623 -0.2999127 0.5610982 -0.7715059 -0.6824629 0.5600832 -0.4696288 -0.1373537 -0.4527937 -0.8809722 -0.6073225 -0.7400245 0.2890039 -0.2571423 -0.137445 0.9565495 -0.2889001 0.9523763 -0.09755164 0.9904382 0.09754925 -0.09755104 0.184969 0.2253873 -0.9565496 -0.8442885 -0.4512808 0.2890032 0.4708892 0.04637825 -0.8809725 -0.279015 0.08463811 0.9565497 0.7693241 0.631367 -0.09755152 -0.9904385 -0.09754866 -0.09754955 0.1849697 -0.2253872 -0.9565495 -0.9161061 0.2778977 0.2890027 -0.4708891 -0.04637885 0.8809724 -0.4161797 -0.7786166 0.4696283 0.1846855 0.6088268 0.7715058 0.2248281 0.7411598 -0.6325618 -0.6830568 -0.3651008 0.6325622 -0.6088267 -0.184686 0.7715058 0.8786126 0.08653575 0.4696294 -0.3001749 0.3657639 -0.8809721 0.2778978 -0.9161063 -0.2890022 0.6331588 0.06236141 -0.7715058 0.6088269 -0.184686 -0.7715056 -0.2248278 0.7411597 0.6325622 -0.4036151 0.4918068 0.7715058 -0.08653587 0.8786125 0.4696292 -0.2230507 0.4172965 -0.8809722 0.6073226 -0.7400249 0.2890025 -0.257139 0.1374458 -0.9565503 -0.2889005 -0.9523764 0.09754943 -0.09754949 -0.9904384 0.09754931 -0.02857989 -0.2901661 -0.9565494 0.9161065 -0.2778972 -0.2890021 0.4708899 -0.04637819 -0.8809722 -0.8786128 0.08653646 -0.4696287 -0.09754747 0.9904386 0.09754872 0.09754794 0.9904384 0.09755122 0.1374455 0.2571424 -0.9565493 -0.4512814 0.8442882 -0.2890029 0.365763 0.300174 -0.8809728 -0.08653509 0.8786124 -0.4696297 0.299913 -0.5610974 0.7715063 0.6830574 0.3651012 0.6325613 -0.07591491 0.7707803 0.6325619 -0.2999132 0.5610981 0.7715058 -0.08653312 -0.8786136 0.4696279 0.3657636 0.3001742 0.8809726 0.9527187 -0.09383499 0.289002 0.2571426 0.1374447 0.9565494 0.2248281 -0.7411609 0.6325606 0.07591557 0.7707804 0.6325619 -0.4918068 -0.4036151 0.7715058 -0.4161794 -0.7786166 -0.4696286 -0.4527933 -0.1373529 -0.8809725 -0.9527184 0.09383487 0.2890028 -0.1374465 0.2571424 -0.9565492 0.9161064 0.2778972 -0.2890023 0.09755021 0.9904384 -0.09754931 -0.2571433 -0.1374455 -0.9565491 0.9527187 0.09383469 -0.2890023 -0.1373533 0.4527934 -0.8809723 -0.8786132 -0.08653587 0.469628 -0.1846854 -0.6088265 -0.7715061 0.2888996 -0.9523765 -0.09755015 -0.02857804 -0.290166 0.9565497 0.2778981 0.9161059 -0.289003 -0.365763 0.3001747 0.8809726 0.5600824 -0.682463 -0.4696298 0.6088269 0.1846854 -0.7715057 0.2248281 -0.7411608 -0.6325607 -0.7411594 -0.2248286 0.6325622 -0.6088263 0.1846857 -0.7715063 0.6824632 0.5600829 0.4696288 0.3657643 -0.300175 0.8809719 -0.9527184 0.0938338 -0.2890034 0.2901663 -0.02857893 -0.9565495 -0.9523763 0.2888998 -0.0975511 0.2999129 -0.5610976 -0.7715062 0.6824628 0.5600826 -0.4696297 -0.1373515 0.4527935 0.8809726 0.6073228 0.7400245 -0.2890032 0.1849695 0.2253863 0.9565497 -0.6313674 -0.769324 -0.09755003 -0.6313672 0.7693241 -0.09755039 -0.0846396 -0.2790147 0.9565496 -0.9527184 -0.0938338 -0.2890033 -0.22305 0.4172968 0.8809722 0.7786161 0.4161793 0.4696293 -0.1846854 0.6088268 -0.7715059 0.4913448 0.5987035 -0.6325618 -0.4913433 0.598704 -0.6325624 -0.1374472 0.2571415 0.9565494 -0.6073229 0.7400246 -0.2890028 0.4172971 0.2230499 0.8809721 -0.6824635 -0.5600832 0.469628 0.5610981 0.2999129 0.7715059 -0.7707802 0.07591581 0.6325621 -0.7707802 0.07591575 -0.6325621 0.1846846 -0.6088261 0.7715067 -0.8448485 0.2562815 0.4696286 -0.4527921 0.1373535 -0.880973 0.8442887 0.451281 0.2890021 0.2571416 0.1374449 -0.9565497 0.4691486 0.8777149 0.09755116 0.6313681 0.7693233 -0.09755069 -0.256282 -0.8448481 0.4696288 -0.4708891 0.04637873 -0.8809725 -0.2778979 0.9161061 -0.2890027 0.08463722 0.2790156 -0.9565494 -0.9904382 0.09755003 -0.09755104 0.9523763 -0.2889001 0.09755104 -0.2901658 0.02857875 0.9565496 0.4512808 -0.8442888 0.2890017 -0.4172964 -0.2230497 0.8809726 0.8448478 -0.2562816 -0.4696298 -0.4918071 -0.4036145 -0.771506 0.365102 -0.6830574 -0.6325609 0.5987046 0.4913443 0.632561 -0.4036149 0.4918065 -0.7715059 0.8442882 0.4512816 -0.2890024 -0.3001739 -0.3657641 -0.8809724 0.4161787 -0.7786165 0.4696294 -0.6088268 -0.1846854 -0.771506 0.6830574 0.365101 -0.6325613 -0.598704 -0.4913433 -0.6325625 -0.5610978 0.2999137 -0.7715058 -0.2562813 0.8448483 -0.4696289 0.4527932 -0.1373536 0.8809725 0.6073234 0.7400242 0.2890027 0.2790149 -0.08463853 0.9565495 0.9904382 -0.09755104 0.09755098 0.6313672 -0.7693242 0.09755039 0.1373515 0.4527937 -0.8809725 0.9161064 0.2778971 0.2890021 -0.02857589 0.2901666 -0.9565495 0.9523765 0.2888994 0.09755092 -0.9523764 -0.2888998 0.09755045 0.225385 0.1849701 0.9565499 -0.09383469 0.9527184 -0.2890028 0.2230498 -0.4172968 0.8809723 -0.7786168 -0.4161794 -0.4696282 -0.6331585 0.0623607 0.771506 0.770781 0.0759148 0.6325612 0.770781 -0.07591587 -0.6325612 0.5610982 0.2999127 -0.7715058 0.5600827 0.6824626 -0.4696298 -0.04637956 0.4708895 0.8809723 -0.6824631 -0.5600832 -0.4696286 0.6331589 0.0623607 0.7715057 0.770781 0.0759148 -0.6325612 -0.2248286 -0.7411589 0.6325628 -0.6331586 -0.06236016 0.7715059 0.5600828 -0.6824628 0.4696295 0.1373531 -0.4527939 -0.8809722 -0.09383499 -0.9527183 -0.2890034 -0.1374448 -0.2571415 0.9565497 0.6313681 0.7693232 0.09755092 0.7693234 -0.6313679 -0.09755063 -0.225387 0.1849703 -0.9565494 0.0938369 -0.9527183 -0.2890028 -0.4512817 -0.8442877 0.2890038 0.08463937 0.2790149 0.9565495 0.9523764 0.2888998 -0.09755122 0.8777156 0.4691474 0.09755116 -0.2253868 -0.1849698 -0.9565495 -0.8442885 0.451281 0.2890028 0.4527937 0.137353 0.8809723 -0.7786171 0.4161782 0.4696288 -0.06236112 0.6331583 -0.7715061 0.7411604 0.2248278 -0.6325613 -0.7411596 0.2248282 0.632562 0.6331584 -0.06236141 -0.7715061 -0.8448483 0.2562816 -0.4696288 0.137354 0.4527934 0.8809722 0.2562823 0.8448482 -0.4696285 0.2999131 0.5610976 0.7715061 0.7411602 -0.2248285 -0.6325613 -0.07591533 -0.7707799 -0.6325625 0.5610976 -0.2999132 0.7715061 -0.2562822 0.8448482 0.4696286 -0.04637974 0.4708893 -0.8809723 -0.7400248 0.6073225 0.2890029 -0.1849702 -0.2253869 -0.9565495 0.09755438 -0.990438 -0.09754943 -0.9523763 0.2889 0.0975511 -0.279015 -0.08463811 0.9565497 -0.2778975 0.9161061 0.2890028 -0.4527935 -0.1373533 0.8809723 -0.1849712 0.225387 -0.9565492 -0.7693238 -0.6313674 0.09755045 0.8777152 -0.469148 -0.09755074 0.290165 0.02857947 0.9565499 0.8442882 -0.4512819 -0.2890021 -0.4172967 0.2230504 -0.8809723 0.08653587 0.8786121 0.4696301 -0.06236094 -0.6331586 -0.7715059 0.07591795 -0.7707808 -0.632561 0.6830568 -0.3651021 0.6325615 0.2999126 0.5610976 -0.7715063 0.6824629 -0.5600831 0.469629 0.4527938 -0.1373534 -0.8809721 0.7400245 0.6073228 -0.2890032 0.5987048 -0.4913444 -0.6325609 -0.4913433 0.598704 0.6325624 0.6331591 -0.06236064 0.7715055 -0.8786132 -0.08653587 -0.4696282 -0.2230501 -0.4172965 0.8809723 0.8442883 -0.4512819 0.289002 -0.2253879 0.1849697 0.9565494 -0.2889 0.9523763 0.09755086 -0.2889003 -0.9523763 -0.09755021 -0.2253865 -0.1849699 0.9565496 0.7400251 -0.6073224 -0.2890026 -0.365764 0.3001742 -0.8809723 -0.08653593 -0.8786131 -0.4696282 0.491807 0.4036146 -0.7715057 -0.09754943 -0.9904384 -0.09755015 0.1374456 -0.2571418 0.9565494 0.4512814 -0.8442884 -0.289002 0.3001744 0.3657636 0.8809725 0.844848 0.2562806 -0.4696298 0.5610975 -0.2999132 -0.7715061 -0.3651013 0.6830567 0.632562 -0.3651003 0.6830566 -0.6325626 0.06236338 -0.6331576 -0.7715065 0.256281 -0.8448479 -0.4696299 -0.3657632 -0.3001743 0.8809726 -0.8442879 -0.4512814 -0.2890036 0.1374456 0.2571417 0.9565495 0.8777151 -0.4691482 0.0975508 0.3651012 -0.6830577 0.632561 0.403615 -0.4918059 0.7715063 0.7786163 0.4161782 -0.46963 0.4172971 -0.2230503 -0.880972 -0.2778978 -0.916106 -0.2890029 0.1374455 -0.2571421 -0.9565494 0.4691479 -0.8777154 0.09755003 -0.6313679 -0.7693235 0.09754979 0.02857995 -0.2901664 -0.9565494 -0.6073225 -0.7400246 -0.2890036 0.2230513 0.4172967 0.880972 0.4161782 -0.7786165 -0.4696299 -0.5610982 0.2999133 0.7715057 -0.6830568 0.3651012 -0.6325619 -0.7693235 0.6313676 0.0975511 -0.1849703 0.2253866 0.9565495 -0.4512813 0.8442882 0.2890029 -0.4527938 0.1373535 0.8809722 0.8786123 0.08653545 -0.4696297 -0.4918063 0.4036149 -0.7715062 0.598704 -0.4913445 0.6325616 -0.7411593 -0.2248286 -0.6325622 0.06236034 0.6331588 0.7715058 0.8786122 -0.08653551 -0.46963 -0.2230505 -0.4172971 -0.880972 0.2778977 -0.9161064 0.2890017 -0.2901653 -0.02857875 0.9565497 0.2888996 -0.9523766 0.09754997 0.3001726 -0.3657644 0.8809726 -0.0759148 0.7707809 -0.6325614 0.02858096 -0.290166 0.9565495 -0.09383428 -0.9527181 0.2890041 0.2901663 -0.02857857 0.9565495 0.9904382 -0.09754937 -0.0975511 -0.9904384 -0.09754866 0.09755051 -0.1374455 -0.257142 -0.9565494 0.7786163 -0.416179 0.4696297 0.2230499 -0.4172973 -0.880972 -0.5600834 0.6824631 0.4696284 -0.4918063 0.4036149 0.771506 0.770781 -0.07591587 0.6325611 -0.07591122 -0.7707805 0.6325623 0.9904382 0.09754943 0.09755116</float_array>
          <technique_common>
            <accessor source="#Sphere-mesh-normals-array" count="960" stride="3">
              <param name="X" type="float"/>
              <param name="Y" type="float"/>
              <param name="Z" type="float"/>
            </accessor>
          </technique_common>
        </source>
        <vertices id="Sphere-mesh-vertices">
          <input semantic="POSITION" source="#Sphere-mesh-positions"/>
        </vertices>
        <triangles material="Material_001-material" count="960">
          <input semantic="VERTEX" source="#Sphere-mesh-vertices" offset="0"/>
          <input semantic="NORMAL" source="#Sphere-mesh-normals" offset="1"/>
          <p>421 0 436 0 435 0 142 1 157 1 156 1 170 2 185 2 184 2 474 3 475 3 480 3 61 4 76 4 75 4 100 5 85 5 86 5 78 6 93 6 92 6 0 7 10 7 296 7 205 8 24 8 481 8 424 9 409 9 410 9 220 10 235 10 234 10 470 11 471 11 477 11 237 12 238 12 253 12 467 13 5 13 4 13 254 14 269 14 268 14 224 15 209 15 210 15 28 16 43 16 42 16 13 17 14 17 29 17 397 18 382 18 383 18 239 19 254 19 253 19 270 20 271 20 286 20 52 21 53 21 68 21 93 22 94 22 109 22 342 23 343 23 358 23 182 24 183 24 198 24 10 25 25 25 296 25 205 26 39 26 24 26 273 27 288 27 287 27 342 28 327 28 328 28 350 29 351 29 366 29 328 30 313 30 314 30 276 31 291 31 290 31 393 32 378 32 379 32 25 33 40 33 296 33 205 34 54 34 39 34 319 35 304 35 305 35 173 36 158 36 159 36 136 37 151 37 150 37 1 38 2 38 12 38 149 39 150 39 165 39 117 40 102 40 103 40 301 41 316 41 315 41 276 42 277 42 292 42 428 43 413 43 414 43 391 44 392 44 407 44 328 45 329 45 344 45 183 46 184 46 199 46 10 47 11 47 26 47 43 48 44 48 59 48 391 49 406 49 405 49 398 50 383 50 384 50 29 51 14 51 15 51 249 52 264 52 263 52 272 53 287 53 286 53 206 54 207 54 222 54 453 55 438 55 439 55 40 56 55 56 296 56 205 57 69 57 54 57 61 58 62 58 77 58 355 59 340 59 341 59 423 60 438 60 437 60 127 61 128 61 143 61 382 62 397 62 396 62 338 63 339 63 354 63 55 64 70 64 296 64 205 65 84 65 69 65 318 66 319 66 334 66 430 67 415 67 416 67 18 68 19 68 34 68 298 69 282 69 283 69 457 70 472 70 471 70 57 71 42 71 43 71 170 72 171 72 186 72 80 73 65 73 66 73 473 74 474 74 9 74 89 75 90 75 105 75 403 76 404 76 419 76 259 77 260 77 275 77 115 78 116 78 131 78 167 79 182 79 181 79 427 80 428 80 443 80 434 81 419 81 420 81 179 82 180 82 195 82 9 83 480 83 23 83 244 84 245 84 260 84 387 85 388 85 403 85 31 86 32 86 47 86 70 87 85 87 296 87 205 88 99 88 84 88 152 89 153 89 168 89 249 90 250 90 265 90 410 91 411 91 426 91 459 92 460 92 475 92 291 93 307 93 306 93 283 94 284 94 300 94 73 95 74 95 89 95 47 96 32 96 33 96 100 97 101 97 116 97 91 98 106 98 105 98 101 99 102 99 117 99 200 100 216 100 215 100 232 101 217 101 218 101 261 102 262 102 277 102 125 103 110 103 111 103 308 104 309 104 324 104 367 105 382 105 381 105 282 106 267 106 268 106 305 107 306 107 321 107 53 108 54 108 69 108 197 109 213 109 212 109 85 110 100 110 296 110 205 111 114 111 99 111 81 112 82 112 97 112 337 113 352 113 351 113 369 114 370 114 385 114 166 115 181 115 180 115 145 116 130 116 131 116 469 117 470 117 8 117 100 118 115 118 296 118 205 119 129 119 114 119 258 120 273 120 272 120 251 121 236 121 237 121 274 122 275 122 290 122 433 123 418 123 419 123 240 124 241 124 256 124 36 125 37 125 52 125 239 126 240 126 255 126 50 127 35 127 36 127 63 128 64 128 79 128 23 129 38 129 37 129 44 130 45 130 60 130 21 131 22 131 37 131 103 132 104 132 119 132 307 133 291 133 292 133 479 134 9 134 22 134 125 135 140 135 139 135 464 136 2 136 1 136 241 137 242 137 257 137 475 138 460 138 461 138 122 139 123 139 138 139 115 140 130 140 296 140 205 141 144 141 129 141 227 142 228 142 243 142 400 143 401 143 416 143 188 144 203 144 202 144 380 145 381 145 396 145 297 146 298 146 313 146 166 147 151 147 152 147 130 148 145 148 296 148 205 149 159 149 144 149 213 150 197 150 198 150 445 151 430 151 431 151 363 152 378 152 377 152 172 153 157 153 158 153 261 154 276 154 275 154 233 155 248 155 247 155 133 156 134 156 149 156 352 157 337 157 338 157 72 158 73 158 88 158 49 159 50 159 65 159 56 160 57 160 72 160 80 161 95 161 94 161 404 162 405 162 420 162 51 163 66 163 65 163 155 164 156 164 171 164 51 165 52 165 67 165 194 166 195 166 211 166 354 167 355 167 370 167 229 168 230 168 245 168 234 169 235 169 250 169 91 170 92 170 107 170 145 171 160 171 296 171 205 172 174 172 159 172 258 173 259 173 274 173 402 174 403 174 418 174 151 175 166 175 165 175 30 176 31 176 46 176 462 177 447 177 448 177 424 178 439 178 438 178 160 179 175 179 296 179 205 180 189 180 174 180 91 181 76 181 77 181 372 182 373 182 388 182 108 183 109 183 124 183 86 184 71 184 72 184 472 185 478 185 477 185 132 186 117 186 118 186 164 187 179 187 178 187 472 188 473 188 479 188 293 189 309 189 308 189 94 190 95 190 110 190 399 191 400 191 415 191 406 192 407 192 422 192 449 193 450 193 465 193 270 194 285 194 284 194 28 195 29 195 44 195 208 196 192 196 193 196 164 197 165 197 180 197 26 198 11 198 12 198 48 199 49 199 64 199 83 200 84 200 99 200 213 201 228 201 227 201 175 202 190 202 296 202 205 203 204 203 189 203 348 204 349 204 364 204 297 205 281 205 282 205 78 206 79 206 94 206 343 207 344 207 359 207 143 208 144 208 159 208 303 209 304 209 319 209 190 210 206 210 296 210 205 211 220 211 204 211 121 212 106 212 107 212 432 213 417 213 418 213 138 214 139 214 154 214 112 215 113 215 128 215 35 216 50 216 49 216 262 217 263 217 278 217 255 218 270 218 269 218 95 219 80 219 81 219 97 220 112 220 111 220 352 221 367 221 366 221 191 222 176 222 177 222 453 223 468 223 467 223 344 224 345 224 360 224 375 225 390 225 389 225 216 226 217 226 232 226 186 227 187 227 202 227 231 228 246 228 245 228 191 229 192 229 208 229 425 230 426 230 441 230 145 231 146 231 161 231 18 232 33 232 32 232 206 233 221 233 296 233 205 234 235 234 220 234 17 235 7 235 8 235 0 236 1 236 11 236 378 237 393 237 392 237 373 238 358 238 359 238 119 239 120 239 135 239 228 240 229 240 244 240 221 241 236 241 296 241 205 242 250 242 235 242 243 243 244 243 259 243 266 244 267 244 282 244 196 245 212 245 211 245 298 246 299 246 314 246 225 247 226 247 241 247 443 248 444 248 459 248 337 249 322 249 323 249 246 250 231 250 232 250 202 251 218 251 217 251 477 252 478 252 20 252 309 253 310 253 325 253 365 254 366 254 381 254 325 255 326 255 341 255 472 256 457 256 458 256 261 257 246 257 247 257 67 258 82 258 81 258 44 259 29 259 30 259 86 260 87 260 102 260 123 261 124 261 139 261 206 262 190 262 191 262 333 263 348 263 347 263 236 264 251 264 296 264 205 265 265 265 250 265 243 266 258 266 257 266 85 267 70 267 71 267 348 268 363 268 362 268 207 269 208 269 223 269 110 270 125 270 124 270 27 271 12 271 13 271 205 272 280 272 265 272 468 273 453 273 454 273 480 274 481 274 24 274 257 275 272 275 271 275 173 276 188 276 187 276 421 277 422 277 437 277 329 278 330 278 345 278 450 279 451 279 466 279 110 280 95 280 96 280 147 281 132 281 133 281 307 282 322 282 321 282 415 283 430 283 429 283 121 284 136 284 135 284 358 285 373 285 372 285 151 286 136 286 137 286 251 287 266 287 296 287 435 288 450 288 449 288 301 289 302 289 317 289 233 290 218 290 219 290 287 291 303 291 302 291 294 292 295 292 311 292 46 293 47 293 62 293 266 294 281 294 296 294 205 295 295 295 280 295 182 296 197 296 196 296 38 297 23 297 24 297 106 298 121 298 120 298 202 299 203 299 219 299 322 300 337 300 336 300 209 301 224 301 223 301 284 302 285 302 301 302 179 303 194 303 193 303 203 304 204 304 220 304 181 305 196 305 195 305 325 306 340 306 339 306 65 307 80 307 79 307 323 308 324 308 339 308 140 309 125 309 126 309 118 310 119 310 134 310 458 311 459 311 474 311 140 312 155 312 154 312 131 313 132 313 147 313 320 314 321 314 336 314 312 315 313 315 328 315 273 316 274 316 289 316 281 317 297 317 296 317 205 318 311 318 295 318 287 319 288 319 304 319 19 320 20 320 35 320 116 321 117 321 132 321 212 322 227 322 226 322 266 323 251 323 252 323 121 324 122 324 137 324 297 325 312 325 296 325 205 326 326 326 311 326 380 327 395 327 394 327 129 328 144 328 143 328 440 329 441 329 456 329 97 330 82 330 83 330 376 331 377 331 392 331 57 332 58 332 73 332 436 333 451 333 450 333 322 334 307 334 308 334 192 335 177 335 178 335 318 336 333 336 332 336 56 337 41 337 42 337 442 338 457 338 456 338 87 339 88 339 103 339 315 340 316 340 331 340 58 341 59 341 74 341 147 342 148 342 163 342 210 343 211 343 226 343 385 344 400 344 399 344 289 345 290 345 306 345 385 346 386 346 401 346 365 347 380 347 379 347 312 348 327 348 296 348 205 349 341 349 326 349 424 350 425 350 440 350 252 351 253 351 268 351 335 352 336 352 351 352 221 353 222 353 237 353 335 354 350 354 349 354 327 355 342 355 296 355 205 356 356 356 341 356 92 357 93 357 108 357 310 358 311 358 326 358 226 359 227 359 242 359 445 360 460 360 459 360 74 361 75 361 90 361 127 362 142 362 141 362 367 363 352 363 353 363 360 364 361 364 376 364 314 365 315 365 330 365 285 366 286 366 302 366 234 367 249 367 248 367 74 368 59 368 60 368 353 369 354 369 369 369 345 370 346 370 361 370 21 371 36 371 35 371 112 372 127 372 126 372 427 373 442 373 441 373 463 374 448 374 449 374 15 375 5 375 6 375 53 376 38 376 39 376 304 377 288 377 289 377 342 378 357 378 296 378 205 379 371 379 356 379 423 380 408 380 409 380 175 381 160 381 161 381 468 382 6 382 5 382 33 383 34 383 49 383 265 384 280 384 279 384 333 385 334 385 349 385 357 386 372 386 296 386 205 387 386 387 371 387 319 388 320 388 335 388 55 389 56 389 71 389 153 390 154 390 169 390 339 391 340 391 355 391 155 392 170 392 169 392 224 393 239 393 238 393 330 394 331 394 346 394 155 395 140 395 141 395 360 396 375 396 374 396 149 397 134 397 135 397 264 398 279 398 278 398 255 399 256 399 271 399 278 400 293 400 292 400 375 401 376 401 391 401 13 402 3 402 4 402 413 403 398 403 399 403 216 404 231 404 230 404 222 405 223 405 238 405 168 406 169 406 184 406 55 407 40 407 41 407 469 408 7 408 6 408 372 409 387 409 296 409 205 410 401 410 386 410 137 411 138 411 153 411 99 412 114 412 113 412 214 413 215 413 230 413 97 414 98 414 113 414 175 415 176 415 191 415 77 416 62 416 63 416 387 417 402 417 296 417 205 418 416 418 401 418 408 419 393 419 394 419 370 420 355 420 356 420 393 421 408 421 407 421 161 422 146 422 147 422 246 423 261 423 260 423 12 424 2 424 3 424 466 425 4 425 3 425 397 426 398 426 413 426 269 427 284 427 283 427 412 428 427 428 426 428 373 429 374 429 389 429 303 430 318 430 317 430 406 431 421 431 420 431 200 432 185 432 186 432 368 433 369 433 384 433 119 434 104 434 105 434 52 435 37 435 38 435 395 436 396 436 411 436 174 437 189 437 188 437 213 438 214 438 229 438 402 439 417 439 296 439 205 440 431 440 416 440 16 441 17 441 32 441 83 442 68 442 69 442 408 443 423 443 422 443 176 444 161 444 162 444 14 445 4 445 5 445 300 446 315 446 314 446 417 447 432 447 296 447 205 448 446 448 431 448 16 449 6 449 7 449 445 450 446 450 461 450 438 451 453 451 452 451 294 452 310 452 309 452 331 453 332 453 347 453 390 454 405 454 404 454 201 455 217 455 216 455 193 456 194 456 210 456 465 457 3 457 2 457 451 458 452 458 467 458 82 459 67 459 68 459 76 460 91 460 90 460 280 461 295 461 294 461 394 462 395 462 410 462 442 463 443 463 458 463 428 464 429 464 444 464 316 465 317 465 332 465 403 466 388 466 389 466 15 467 16 467 31 467 432 468 433 468 448 468 439 469 440 469 455 469 432 470 447 470 296 470 205 471 461 471 446 471 47 472 48 472 63 472 463 473 1 473 0 473 45 474 46 474 61 474 278 475 279 475 294 475 436 476 437 476 452 476 156 477 157 477 172 477 149 478 164 478 163 478 167 479 168 479 183 479 189 480 204 480 203 480 198 481 199 481 215 481 142 482 143 482 158 482 346 483 347 483 362 483 162 484 163 484 178 484 412 485 413 485 428 485 88 486 89 486 104 486 262 487 247 487 248 487 361 488 362 488 377 488 26 489 27 489 42 489 455 490 456 490 471 490 113 491 114 491 129 491 454 492 455 492 470 492 447 493 462 493 296 493 205 494 476 494 461 494 444 495 429 495 430 495 239 496 224 496 225 496 480 497 475 497 476 497 8 498 477 498 19 498 370 499 371 499 386 499 363 500 364 500 379 500 462 501 0 501 296 501 205 502 481 502 476 502 108 503 123 503 122 503 40 504 25 504 26 504 397 505 412 505 411 505 434 506 449 506 448 506 185 507 200 507 199 507 172 508 187 508 186 508 382 509 367 509 368 509 478 510 479 510 21 510 350 511 365 511 364 511 421 512 435 512 420 512 142 513 156 513 141 513 170 514 184 514 169 514 474 515 480 515 9 515 61 516 75 516 60 516 100 517 86 517 101 517 78 518 92 518 77 518 424 519 410 519 425 519 220 520 234 520 219 520 470 521 477 521 8 521 237 522 253 522 252 522 467 523 4 523 466 523 254 524 268 524 253 524 224 525 210 525 225 525 28 526 42 526 27 526 13 527 29 527 28 527 397 528 383 528 398 528 239 529 253 529 238 529 270 530 286 530 285 530 52 531 68 531 67 531 93 532 109 532 108 532 342 533 358 533 357 533 182 534 198 534 197 534 273 535 287 535 272 535 342 536 328 536 343 536 350 537 366 537 365 537 328 538 314 538 329 538 276 539 290 539 275 539 393 540 379 540 394 540 319 541 305 541 320 541 173 542 159 542 174 542 136 543 150 543 135 543 1 544 12 544 11 544 149 545 165 545 164 545 117 546 103 546 118 546 301 547 315 547 300 547 276 548 292 548 291 548 428 549 414 549 429 549 391 550 407 550 406 550 328 551 344 551 343 551 183 552 199 552 198 552 10 553 26 553 25 553 43 554 59 554 58 554 391 555 405 555 390 555 398 556 384 556 399 556 29 557 15 557 30 557 249 558 263 558 248 558 272 559 286 559 271 559 206 560 222 560 221 560 453 561 439 561 454 561 61 562 77 562 76 562 355 563 341 563 356 563 423 564 437 564 422 564 127 565 143 565 142 565 382 566 396 566 381 566 338 567 354 567 353 567 318 568 334 568 333 568 430 569 416 569 431 569 18 570 34 570 33 570 298 571 283 571 299 571 457 572 471 572 456 572 57 573 43 573 58 573 170 574 186 574 185 574 80 575 66 575 81 575 473 576 9 576 479 576 89 577 105 577 104 577 403 578 419 578 418 578 259 579 275 579 274 579 115 580 131 580 130 580 167 581 181 581 166 581 427 582 443 582 442 582 434 583 420 583 435 583 179 584 195 584 194 584 9 585 23 585 22 585 244 586 260 586 259 586 387 587 403 587 402 587 31 588 47 588 46 588 152 589 168 589 167 589 249 590 265 590 264 590 410 591 426 591 425 591 459 592 475 592 474 592 291 593 306 593 290 593 283 594 300 594 299 594 73 595 89 595 88 595 47 596 33 596 48 596 100 597 116 597 115 597 91 598 105 598 90 598 101 599 117 599 116 599 200 600 215 600 199 600 232 601 218 601 233 601 261 602 277 602 276 602 125 603 111 603 126 603 308 604 324 604 323 604 367 605 381 605 366 605 282 606 268 606 283 606 305 607 321 607 320 607 53 608 69 608 68 608 197 609 212 609 196 609 81 610 97 610 96 610 337 611 351 611 336 611 369 612 385 612 384 612 166 613 180 613 165 613 145 614 131 614 146 614 469 615 8 615 7 615 258 616 272 616 257 616 251 617 237 617 252 617 274 618 290 618 289 618 433 619 419 619 434 619 240 620 256 620 255 620 36 621 52 621 51 621 239 622 255 622 254 622 50 623 36 623 51 623 63 624 79 624 78 624 23 625 37 625 22 625 44 626 60 626 59 626 21 627 37 627 36 627 103 628 119 628 118 628 307 629 292 629 308 629 479 630 22 630 21 630 125 631 139 631 124 631 464 632 1 632 463 632 241 633 257 633 256 633 475 634 461 634 476 634 122 635 138 635 137 635 227 636 243 636 242 636 400 637 416 637 415 637 188 638 202 638 187 638 380 639 396 639 395 639 297 640 313 640 312 640 166 641 152 641 167 641 213 642 198 642 214 642 445 643 431 643 446 643 363 644 377 644 362 644 172 645 158 645 173 645 261 646 275 646 260 646 233 647 247 647 232 647 133 648 149 648 148 648 352 649 338 649 353 649 72 650 88 650 87 650 49 651 65 651 64 651 56 652 72 652 71 652 80 653 94 653 79 653 404 654 420 654 419 654 51 655 65 655 50 655 155 656 171 656 170 656 51 657 67 657 66 657 194 658 211 658 210 658 354 659 370 659 369 659 229 660 245 660 244 660 234 661 250 661 249 661 91 662 107 662 106 662 258 663 274 663 273 663 402 664 418 664 417 664 151 665 165 665 150 665 30 666 46 666 45 666 462 667 448 667 463 667 424 668 438 668 423 668 91 669 77 669 92 669 372 670 388 670 387 670 108 671 124 671 123 671 86 672 72 672 87 672 472 673 477 673 471 673 132 674 118 674 133 674 164 675 178 675 163 675 472 676 479 676 478 676 293 677 308 677 292 677 94 678 110 678 109 678 399 679 415 679 414 679 406 680 422 680 421 680 449 681 465 681 464 681 270 682 284 682 269 682 28 683 44 683 43 683 208 684 193 684 209 684 164 685 180 685 179 685 26 686 12 686 27 686 48 687 64 687 63 687 83 688 99 688 98 688 213 689 227 689 212 689 348 690 364 690 363 690 297 691 282 691 298 691 78 692 94 692 93 692 343 693 359 693 358 693 143 694 159 694 158 694 303 695 319 695 318 695 121 696 107 696 122 696 432 697 418 697 433 697 138 698 154 698 153 698 112 699 128 699 127 699 35 700 49 700 34 700 262 701 278 701 277 701 255 702 269 702 254 702 95 703 81 703 96 703 97 704 111 704 96 704 352 705 366 705 351 705 191 706 177 706 192 706 453 707 467 707 452 707 344 708 360 708 359 708 375 709 389 709 374 709 216 710 232 710 231 710 186 711 202 711 201 711 231 712 245 712 230 712 191 713 208 713 207 713 425 714 441 714 440 714 145 715 161 715 160 715 18 716 32 716 17 716 17 717 8 717 18 717 0 718 11 718 10 718 378 719 392 719 377 719 373 720 359 720 374 720 119 721 135 721 134 721 228 722 244 722 243 722 243 723 259 723 258 723 266 724 282 724 281 724 196 725 211 725 195 725 298 726 314 726 313 726 225 727 241 727 240 727 443 728 459 728 458 728 337 729 323 729 338 729 246 730 232 730 247 730 202 731 217 731 201 731 477 732 20 732 19 732 309 733 325 733 324 733 365 734 381 734 380 734 325 735 341 735 340 735 472 736 458 736 473 736 261 737 247 737 262 737 67 738 81 738 66 738 44 739 30 739 45 739 86 740 102 740 101 740 123 741 139 741 138 741 206 742 191 742 207 742 333 743 347 743 332 743 243 744 257 744 242 744 85 745 71 745 86 745 348 746 362 746 347 746 207 747 223 747 222 747 110 748 124 748 109 748 27 749 13 749 28 749 468 750 454 750 469 750 480 751 24 751 23 751 257 752 271 752 256 752 173 753 187 753 172 753 421 754 437 754 436 754 329 755 345 755 344 755 450 756 466 756 465 756 110 757 96 757 111 757 147 758 133 758 148 758 307 759 321 759 306 759 415 760 429 760 414 760 121 761 135 761 120 761 358 762 372 762 357 762 151 763 137 763 152 763 435 764 449 764 434 764 301 765 317 765 316 765 233 766 219 766 234 766 287 767 302 767 286 767 294 768 311 768 310 768 46 769 62 769 61 769 182 770 196 770 181 770 38 771 24 771 39 771 106 772 120 772 105 772 202 773 219 773 218 773 322 774 336 774 321 774 209 775 223 775 208 775 284 776 301 776 300 776 179 777 193 777 178 777 203 778 220 778 219 778 181 779 195 779 180 779 325 780 339 780 324 780 65 781 79 781 64 781 323 782 339 782 338 782 140 783 126 783 141 783 118 784 134 784 133 784 458 785 474 785 473 785 140 786 154 786 139 786 131 787 147 787 146 787 320 788 336 788 335 788 312 789 328 789 327 789 273 790 289 790 288 790 287 791 304 791 303 791 19 792 35 792 34 792 116 793 132 793 131 793 212 794 226 794 211 794 266 795 252 795 267 795 121 796 137 796 136 796 380 797 394 797 379 797 129 798 143 798 128 798 440 799 456 799 455 799 97 800 83 800 98 800 376 801 392 801 391 801 57 802 73 802 72 802 436 803 450 803 435 803 322 804 308 804 323 804 192 805 178 805 193 805 318 806 332 806 317 806 56 807 42 807 57 807 442 808 456 808 441 808 87 809 103 809 102 809 315 810 331 810 330 810 58 811 74 811 73 811 147 812 163 812 162 812 210 813 226 813 225 813 385 814 399 814 384 814 289 815 306 815 305 815 385 816 401 816 400 816 365 817 379 817 364 817 424 818 440 818 439 818 252 819 268 819 267 819 335 820 351 820 350 820 221 821 237 821 236 821 335 822 349 822 334 822 92 823 108 823 107 823 310 824 326 824 325 824 226 825 242 825 241 825 445 826 459 826 444 826 74 827 90 827 89 827 127 828 141 828 126 828 367 829 353 829 368 829 360 830 376 830 375 830 314 831 330 831 329 831 285 832 302 832 301 832 234 833 248 833 233 833 74 834 60 834 75 834 353 835 369 835 368 835 345 836 361 836 360 836 21 837 35 837 20 837 112 838 126 838 111 838 427 839 441 839 426 839 463 840 449 840 464 840 15 841 6 841 16 841 53 842 39 842 54 842 304 843 289 843 305 843 423 844 409 844 424 844 175 845 161 845 176 845 468 846 5 846 467 846 33 847 49 847 48 847 265 848 279 848 264 848 333 849 349 849 348 849 319 850 335 850 334 850 55 851 71 851 70 851 153 852 169 852 168 852 339 853 355 853 354 853 155 854 169 854 154 854 224 855 238 855 223 855 330 856 346 856 345 856 155 857 141 857 156 857 360 858 374 858 359 858 149 859 135 859 150 859 264 860 278 860 263 860 255 861 271 861 270 861 278 862 292 862 277 862 375 863 391 863 390 863 13 864 4 864 14 864 413 865 399 865 414 865 216 866 230 866 215 866 222 867 238 867 237 867 168 868 184 868 183 868 55 869 41 869 56 869 469 870 6 870 468 870 137 871 153 871 152 871 99 872 113 872 98 872 214 873 230 873 229 873 97 874 113 874 112 874 175 875 191 875 190 875 77 876 63 876 78 876 408 877 394 877 409 877 370 878 356 878 371 878 393 879 407 879 392 879 161 880 147 880 162 880 246 881 260 881 245 881 12 882 3 882 13 882 466 883 3 883 465 883 397 884 413 884 412 884 269 885 283 885 268 885 412 886 426 886 411 886 373 887 389 887 388 887 303 888 317 888 302 888 406 889 420 889 405 889 200 890 186 890 201 890 368 891 384 891 383 891 119 892 105 892 120 892 52 893 38 893 53 893 395 894 411 894 410 894 174 895 188 895 173 895 213 896 229 896 228 896 16 897 32 897 31 897 83 898 69 898 84 898 408 899 422 899 407 899 176 900 162 900 177 900 14 901 5 901 15 901 300 902 314 902 299 902 16 903 7 903 17 903 445 904 461 904 460 904 438 905 452 905 437 905 294 906 309 906 293 906 331 907 347 907 346 907 390 908 404 908 389 908 201 909 216 909 200 909 193 910 210 910 209 910 465 911 2 911 464 911 451 912 467 912 466 912 82 913 68 913 83 913 76 914 90 914 75 914 280 915 294 915 279 915 394 916 410 916 409 916 442 917 458 917 457 917 428 918 444 918 443 918 316 919 332 919 331 919 403 920 389 920 404 920 15 921 31 921 30 921 432 922 448 922 447 922 439 923 455 923 454 923 47 924 63 924 62 924 463 925 0 925 462 925 45 926 61 926 60 926 278 927 294 927 293 927 436 928 452 928 451 928 156 929 172 929 171 929 149 930 163 930 148 930 167 931 183 931 182 931 189 932 203 932 188 932 198 933 215 933 214 933 142 934 158 934 157 934 346 935 362 935 361 935 162 936 178 936 177 936 412 937 428 937 427 937 88 938 104 938 103 938 262 939 248 939 263 939 361 940 377 940 376 940 26 941 42 941 41 941 455 942 471 942 470 942 113 943 129 943 128 943 454 944 470 944 469 944 444 945 430 945 445 945 239 946 225 946 240 946 480 947 476 947 481 947 8 948 19 948 18 948 370 949 386 949 385 949 363 950 379 950 378 950 108 951 122 951 107 951 40 952 26 952 41 952 397 953 411 953 396 953 434 954 448 954 433 954 185 955 199 955 184 955 172 956 186 956 171 956 382 957 368 957 383 957 478 958 21 958 20 958 350 959 364 959 349 959</p>
        </triangles>
      </mesh>
    </geometry>
  </library_geometries>
  <library_controllers/>
  <library_visual_scenes>
    <visual_scene id="Scene" name="Scene">
      <node id="Sphere" name="Sphere" type="NODE">
        <matrix sid="transform">1 0 0 0 0 1 0 0 0 0 1 0 0 0 0 1</matrix>
        <instance_geometry url="#Sphere-mesh" name="Sphere">
          <bind_material>
            <technique_common>
              <instance_material symbol="Material_001-material" target="#Material_001-material"/>
            </technique_common>
          </bind_material>
        </instance_geometry>
      </node>
    </visual_scene>
  </library_visual_scenes>
  <scene>
    <instance_visual_scene url="#Scene"/>
  </scene>
</COLLADA>