<?xml version="1.0" encoding="utf-8"?>
<COLLADA xmlns="http://www.collada.org/2005/11/COLLADASchema" version="1.4.1" xmlns:xsi="http://www.w3.org/2001/XMLSchema-instance">
  <asset>
    <contributor>
      <author>Blender User</author>
      <authoring_tool>Blender 2.79.0 commit date:2018-03-22, commit time:14:10, hash:f4dc9f9d68b</authoring_tool>
    </contributor>
    <created>2018-06-30T11:00:28</created>
    <modified>2018-06-30T11:00:28</modified>
    <unit name="meter" meter="1"/>
    <up_axis>Z_UP</up_axis>
  </asset>
  <library_images>
    <image id="blue_bmp" name="blue_bmp">
      <init_from>blue.bmp</init_from>
    </image>
  </library_images>
  <library_effects>
    <effect id="Material_001-effect">
      <profile_COMMON>
        <newparam sid="blue_bmp-surface">
          <surface type="2D">
            <init_from>blue_bmp</init_from>
          </surface>
        </newparam>
        <newparam sid="blue_bmp-sampler">
          <sampler2D>
            <source>blue_bmp-surface</source>
          </sampler2D>
        </newparam>
        <technique sid="common">
          <phong>
            <emission>
              <color sid="emission">0 0 0 1</color>
            </emission>
            <ambient>
              <color sid="ambient">0 0 0 1</color>
            </ambient>
            <diffuse>
              <texture texture="blue_bmp-sampler"/>
            </diffuse>
            <specular>
              <color sid="specular">0.5 0.5 0.5 1</color>
            </specular>
            <shininess>
              <float sid="shininess">50</float>
            </shininess>
            <index_of_refraction>
              <float sid="index_of_refraction">1</float>
            </index_of_refraction>
          </phong>
        </technique>
      </profile_COMMON>
    </effect>
  </library_effects>
  <library_materials>
    <material id="Material_001-material" name="Material_001">
      <instance_effect url="#Material_001-effect"/>
    </material>
  </library_materials>
  <library_geometries>
    <geometry id="Sphere-mesh" name="Sphere">
      <mesh>
        <source id="Sphere-mesh-positions">
          <float_array id="Sphere-mesh-positions-array" count="726">0 19.50903 98.07852 0 70.71068 70.71068 0 83.14697 55.55702 0 92.38795 38.26834 0 98.07852 19.50904 0 100 7.54979e-6 0 98.07853 -19.50902 0 92.38796 -38.26832 0 83.14697 -55.55702 0 70.71068 -70.71068 0 55.55702 -83.14697 0 38.26832 -92.38796 0 19.50901 -98.07853 7.465796 18.024 98.07852 14.64468 35.35533 92.38795 21.26077 51.32799 83.14696 27.05982 65.32815 70.71068 31.81898 76.81778 55.55702 35.35535 85.35533 38.26834 37.53304 90.61274 19.50904 38.26836 92.38795 7.54979e-6 37.53304 90.61274 -19.50902 35.35535 85.35534 -38.26832 31.81898 76.81778 -55.55702 27.05982 65.32815 -70.71068 21.26077 51.32799 -83.14697 14.64467 35.35531 -92.38796 7.465787 18.02397 -98.07853 13.79499 13.79496 98.07852 27.05983 27.05979 92.38795 39.28477 39.28473 83.14696 50.00003 49.99998 70.71068 58.79381 58.79377 55.55702 65.32817 65.32814 38.26834 69.35202 69.35198 19.50904 70.71071 70.71067 7.54979e-6 69.35202 69.35198 -19.50902 65.32818 65.32814 -38.26832 58.79381 58.79377 -55.55702 50.00003 49.99998 -70.71068 39.28477 39.28473 -83.14697 27.05982 27.05978 -92.38796 13.79498 13.79494 -98.07853 18.02403 7.465762 98.07852 35.35537 14.64464 92.38795 51.32803 21.26073 83.14696 65.32819 27.05978 70.71068 76.81781 31.81894 55.55702 85.35537 35.35531 38.26834 90.61278 37.533 19.50904 92.38799 38.26831 7.54979e-6 90.61278 37.533 -19.50902 85.35538 35.35531 -38.26832 76.81781 31.81894 -55.55702 65.32819 27.05978 -70.71068 51.32802 21.26072 -83.14697 35.35535 14.64463 -92.38796 18.02401 7.465753 -98.07853 19.50907 -3.49053e-5 98.07852 38.26837 -3.77663e-5 92.38795 55.55705 -4.25346e-5 83.14696 70.71072 -4.4442e-5 70.71068 83.147 -3.87199e-5 55.55702 92.38799 -4.4442e-5 38.26834 98.07856 -4.06273e-5 19.50904 100 -4.82567e-5 7.54979e-6 98.07856 -4.06273e-5 -19.50902 92.388 -4.4442e-5 -38.26832 83.147 -3.87199e-5 -55.55702 70.71072 -4.4442e-5 -70.71068 55.55704 -4.25346e-5 -83.14697 38.26835 -3.87199e-5 -92.38796 19.50904 -3.53821e-5 -98.07853 18.02403 -7.465831 98.07852 35.35536 -14.64471 92.38795 51.32802 -21.26081 83.14696 65.32818 -27.05987 70.71068 76.81781 -31.81902 55.55702 85.35537 -35.3554 38.26834 90.61277 -37.53308 19.50904 92.38798 -38.2684 7.54979e-6 90.61277 -37.53308 -19.50902 85.35537 -35.3554 -38.26832 76.81781 -31.81902 -55.55702 65.32818 -27.05987 -70.71068 51.32801 -21.2608 -83.14697 35.35534 -14.6447 -92.38796 18.024 -7.465823 -98.07853 13.79499 -13.79503 98.07852 27.05982 -27.05986 92.38795 39.28475 -39.28481 83.14696 50.00001 -50.00007 70.71068 58.79379 -58.79384 55.55702 65.32817 -65.32822 38.26834 69.35201 -69.35205 19.50904 70.7107 -70.71075 7.54979e-6 69.35201 -69.35205 -19.50902 65.32817 -65.32822 -38.26832 58.79379 -58.79384 -55.55702 50.00001 -50.00007 -70.71068 39.28475 -39.2848 -83.14697 27.05981 -27.05985 -92.38796 13.79497 -13.79501 -98.07853 7.465792 -18.02406 98.07852 14.64466 -35.3554 92.38795 21.26075 -51.32806 83.14696 27.0598 -65.32822 70.71068 31.81896 -76.81784 55.55702 35.35534 -85.35541 38.26834 37.53303 -90.6128 19.50904 38.26834 -92.38803 7.54979e-6 37.53303 -90.6128 -19.50902 35.35533 -85.35541 -38.26832 31.81896 -76.81784 -55.55702 27.0598 -65.32822 -70.71068 21.26075 -51.32805 -83.14697 14.64466 -35.35538 -92.38796 7.465783 -18.02404 -98.07853 0 -6.51683e-5 100 -4.69673e-6 -19.5091 98.07852 -1.04188e-5 -38.2684 92.38795 -1.80482e-5 -55.55708 83.14696 -1.99555e-5 -70.71074 70.71068 -1.61408e-5 -83.14701 55.55702 -1.04188e-5 -92.38802 38.26834 -1.42335e-5 -98.07858 19.50904 -2.18629e-5 -100.0001 7.54979e-6 -1.42335e-5 -98.07858 -19.50902 -1.80482e-5 -92.38801 -38.26832 -1.61408e-5 -83.14701 -55.55702 -1.99555e-5 -70.71074 -70.71068 -1.61408e-5 -55.55707 -83.14697 -1.04188e-5 -38.26839 -92.38796 -5.6504e-6 -19.50907 -98.07853 0 -3.25841e-5 -100 -7.4658 -18.02405 98.07852 -14.64468 -35.3554 92.38795 -21.26078 -51.32804 83.14696 -27.05984 -65.3282 70.71068 -31.81899 -76.81781 55.55702 -35.35536 -85.35539 38.26834 -37.53305 -90.61278 19.50904 -38.26837 -92.388 7.54979e-6 -37.53305 -90.61278 -19.50902 -35.35536 -85.35538 -38.26832 -31.81899 -76.81781 -55.55702 -27.05984 -65.3282 -70.71068 -21.26078 -51.32804 -83.14697 -14.64468 -35.35538 -92.38796 -7.465793 -18.02403 -98.07853 -13.795 -13.79502 98.07852 -27.05984 -27.05985 92.38795 -39.28478 -39.28479 83.14696 -50.00003 -50.00003 70.71068 -58.7938 -58.7938 55.55702 -65.32817 -65.32818 38.26834 -69.35201 -69.35202 19.50904 -70.71071 -70.7107 7.54979e-6 -69.35201 -69.35202 -19.50902 -65.32817 -65.32817 -38.26832 -58.7938 -58.7938 -55.55702 -50.00003 -50.00003 -70.71068 -39.28477 -39.28478 -83.14697 -27.05982 -27.05984 -92.38796 -13.79498 -13.795 -98.07853 -18.02403 -7.465821 98.07852 -35.35537 -14.64469 92.38795 -51.32803 -21.26078 83.14696 -65.32818 -27.05982 70.71068 -76.8178 -31.81898 55.55702 -85.35536 -35.35536 38.26834 -90.61275 -37.53305 19.50904 -92.38797 -38.26836 7.54979e-6 -90.61275 -37.53305 -19.50902 -85.35536 -35.35535 -38.26832 -76.8178 -31.81898 -55.55702 -65.32818 -27.05982 -70.71068 -51.32802 -21.26078 -83.14697 -35.35535 -14.64468 -92.38796 -18.02401 -7.465812 -98.07853 -19.50906 -2.48917e-5 98.07852 -38.26837 -1.77391e-5 92.38795 -55.55705 -1.20171e-5 83.14696 -70.7107 -6.29502e-6 70.71068 -83.14697 -4.38767e-6 55.55702 -92.38796 -1.01097e-5 38.26834 -98.07852 -1.77391e-5 19.50904 -100 -6.29502e-6 7.54979e-6 -98.07852 -1.77391e-5 -19.50902 -92.38796 -6.29502e-6 -38.26832 -83.14697 -4.38767e-6 -55.55702 -70.7107 -6.29502e-6 -70.71068 -55.55704 -1.20171e-5 -83.14697 -38.26835 -1.67854e-5 -92.38796 -19.50904 -2.3938e-5 -98.07853 -18.02402 7.465769 98.07852 -35.35536 14.64465 92.38795 -51.32801 21.26075 83.14696 -65.32815 27.05981 70.71068 -76.81777 31.81896 55.55702 -85.35533 35.35533 38.26834 -90.61273 37.53301 19.50904 -92.38794 38.26834 7.54979e-6 -90.61273 37.53301 -19.50902 -85.35533 35.35533 -38.26832 -76.81777 31.81896 -55.55702 -65.32815 27.05981 -70.71068 -51.328 21.26075 -83.14697 -35.35534 14.64465 -92.38796 -18.024 7.465762 -98.07853 -13.79498 13.79496 98.07852 -27.05982 27.05981 92.38795 -39.28475 39.28475 83.14696 -49.99998 50 70.71068 -58.79376 58.79377 55.55702 -65.32813 65.32814 38.26834 -69.35198 69.35198 19.50904 -70.71065 70.71067 7.54979e-6 -69.35198 69.35198 -19.50902 -65.32812 65.32814 -38.26832 -58.79376 58.79377 -55.55702 -49.99998 50 -70.71068 -39.28474 39.28474 -83.14697 -27.0598 27.05979 -92.38796 -13.79497 13.79495 -98.07853 -7.465784 18.02399 98.07852 -14.64466 35.35534 92.38795 -21.26074 51.32799 83.14696 -27.05978 65.32814 70.71068 -31.81893 76.81776 55.55702 -35.3553 85.35533 38.26834 -37.533 90.61273 19.50904 -38.26831 92.38793 7.54979e-6 -37.533 90.61273 -19.50902 -35.3553 85.35533 -38.26832 -31.81893 76.81776 -55.55702 -27.05978 65.32814 -70.71068 -21.26074 51.32798 -83.14697 -14.64465 35.35532 -92.38796 -7.465777 18.02397 -98.07853 1.91451e-5 38.26834 92.38795 2.77282e-5 55.55701 83.14696</float_array>
          <technique_common>
            <accessor source="#Sphere-mesh-positions-array" count="242" stride="3">
              <param name="X" type="float"/>
              <param name="Y" type="float"/>
              <param name="Z" type="float"/>
            </accessor>
          </technique_common>
        </source>
        <source id="Sphere-mesh-normals">
          <float_array id="Sphere-mesh-normals-array" count="1437">0.1869899 0.9400614 -0.2851654 0.09335696 0.4693379 0.8780697 0.1727865 0.868657 -0.4643059 0.1251958 0.6294016 0.7669288 0.151975 0.7640312 -0.6270247 0.1519753 0.7640313 0.6270246 0.1251964 0.6294018 -0.7669286 0.1727866 0.8686565 0.464307 0.0933566 0.4693377 -0.8780699 0.1869898 0.9400618 0.2851645 0.05764663 0.2898015 -0.9553492 0.1941865 0.976241 0.09615147 0.0194934 0.09799849 0.9949957 0.01949411 0.09799838 -0.9949957 0.1941865 0.9762411 -0.09615081 0.05764603 0.2898021 0.9553491 0.05551135 0.08307904 -0.9949957 0.552996 0.8276172 -0.09615129 0.1641588 0.2456822 0.9553492 0.5325022 0.7969458 -0.2851648 0.265859 0.3978852 0.8780698 0.4920545 0.7364118 -0.4643062 0.3565271 0.5335811 0.7669287 0.4327893 0.6477143 -0.6270244 0.4327892 0.6477145 0.6270243 0.3565279 0.5335811 -0.7669283 0.4920545 0.7364116 0.4643065 0.2658582 0.3978855 -0.8780699 0.532502 0.7969458 0.2851651 0.1641588 0.2456818 -0.9553494 0.5529962 0.8276174 0.09615063 0.05551153 0.08307909 0.9949957 0.5335815 0.3565273 -0.7669283 0.7364116 0.4920546 0.4643062 0.3978852 0.2658585 -0.8780699 0.7969456 0.5325022 0.2851651 0.2456822 0.1641594 -0.9553492 0.8276174 0.552996 0.09615117 0.08307975 0.05551165 0.9949956 0.08307838 0.05551165 -0.9949958 0.8276172 0.5529962 -0.09615159 0.2456824 0.1641595 0.9553491 0.7969458 0.5325023 -0.2851643 0.397886 0.2658584 0.8780695 0.7364114 0.4920547 -0.4643065 0.5335808 0.3565275 0.7669288 0.6477147 0.432789 -0.6270242 0.6477147 0.4327887 0.6270244 0.2898014 0.05764514 0.9553493 0.9400618 0.1869899 -0.2851643 0.4693382 0.09335696 0.8780696 0.8686566 0.1727865 -0.4643065 0.6294016 0.1251956 0.7669288 0.7640315 0.1519746 -0.6270244 0.7640316 0.1519757 0.6270241 0.6294015 0.1251958 -0.7669289 0.8686567 0.1727862 0.4643065 0.4693377 0.0933569 -0.8780698 0.9400616 0.1869899 0.2851648 0.2898014 0.0576452 -0.9553493 0.9762412 0.1941861 0.09615123 0.09799915 0.0194931 0.9949956 0.09799867 0.01949304 -0.9949957 0.9762411 0.1941863 -0.09615123 0.8686566 -0.1727862 0.4643067 0.4693375 -0.09335732 -0.8780699 0.9400618 -0.1869899 0.2851647 0.289802 -0.05764514 -0.9553492 0.9762411 -0.1941863 0.09615135 0.09799849 -0.01949316 0.9949957 0.09799706 -0.0194931 -0.9949958 0.9762411 -0.1941866 -0.09615135 0.2898022 -0.0576452 0.9553491 0.9400618 -0.1869899 -0.2851644 0.4693378 -0.0933572 0.8780698 0.8686565 -0.1727868 -0.4643067 0.6294013 -0.1251959 0.766929 0.7640316 -0.1519755 -0.6270242 0.7640317 -0.1519753 0.627024 0.6294022 -0.1251956 -0.7669283 0.7969459 -0.5325022 -0.2851642 0.3978857 -0.2658585 0.8780696 0.7364112 -0.4920549 -0.4643066 0.5335807 -0.3565275 0.7669288 0.6477147 -0.4327892 -0.6270242 0.6477149 -0.4327893 0.6270238 0.5335808 -0.3565276 -0.7669288 0.7364113 -0.4920545 0.4643068 0.3978855 -0.2658586 -0.8780698 0.7969456 -0.5325027 0.2851642 0.2456815 -0.1641597 -0.9553493 0.8276171 -0.5529963 0.09615182 0.0830807 -0.05551183 0.9949955 0.08307915 -0.05551165 -0.9949957 0.8276172 -0.5529961 -0.09615135 0.2456817 -0.1641598 0.9553493 0.2658585 -0.397886 -0.8780696 0.5325021 -0.7969462 0.285164 0.1641601 -0.2456819 -0.9553491 0.552996 -0.8276174 0.09615153 0.05551338 -0.08307939 0.9949956 0.05551135 -0.08307904 -0.9949957 0.5529959 -0.8276174 -0.09615194 0.1641594 -0.2456824 0.9553492 0.5325024 -0.7969461 -0.2851636 0.2658591 -0.3978856 0.8780695 0.4920542 -0.7364118 -0.4643063 0.3565272 -0.5335808 0.7669289 0.4327885 -0.6477152 -0.6270241 0.432789 -0.647715 0.6270239 0.3565279 -0.533581 -0.7669285 0.4920539 -0.7364113 0.4643075 0.0933569 -0.469338 0.8780696 0.1727862 -0.8686566 -0.4643068 0.1251955 -0.6294021 0.7669285 0.1519749 -0.7640321 -0.6270237 0.1519752 -0.7640318 0.627024 0.1251955 -0.6294022 -0.7669283 0.1727862 -0.8686562 0.4643074 0.09335732 -0.4693381 -0.8780696 0.1869896 -0.9400619 0.2851639 0.05764514 -0.2898017 -0.9553493 0.194186 -0.9762411 0.09615212 0.01949179 -0.09799879 0.9949957 0.01949328 -0.09799838 -0.9949957 0.1941861 -0.9762411 -0.09615194 0.05764508 -0.289802 0.9553491 0.1869894 -0.9400616 -0.2851651 -0.1869903 -0.9400621 0.2851634 -0.05764663 -0.2898015 -0.9553492 -0.1941867 -0.976241 0.09615182 -0.01949346 -0.09799879 0.9949956 -0.01949387 -0.09799844 -0.9949957 -0.1941867 -0.9762409 -0.0961526 -0.05764508 -0.289802 0.9553491 -0.1869902 -0.9400615 -0.285165 -0.09335684 -0.4693378 0.8780698 -0.1727868 -0.8686565 -0.4643065 -0.1251958 -0.6294015 0.7669288 -0.1519758 -0.7640319 -0.6270236 -0.1519757 -0.7640317 0.627024 -0.125196 -0.629402 -0.7669284 -0.1727869 -0.8686564 0.4643069 -0.09335708 -0.4693381 -0.8780696 -0.4920544 -0.7364115 -0.4643066 -0.3565276 -0.5335811 0.7669284 -0.4327893 -0.6477151 -0.6270237 -0.4327895 -0.6477147 0.6270239 -0.3565276 -0.5335813 -0.7669285 -0.4920551 -0.7364112 0.4643064 -0.2658584 -0.3978855 -0.8780698 -0.5325026 -0.7969459 0.2851635 -0.1641583 -0.2456818 -0.9553495 -0.5529965 -0.827617 0.09615159 -0.05551171 -0.08307933 0.9949957 -0.05551177 -0.08307904 -0.9949957 -0.5529965 -0.8276169 -0.09615331 -0.1641593 -0.2456822 0.9553492 -0.5325025 -0.7969455 -0.2851648 -0.265859 -0.3978853 0.8780697 -0.2456815 -0.1641592 -0.9553495 -0.8276174 -0.5529958 0.0961517 -0.08307993 -0.05551177 0.9949956 -0.08307754 -0.05551159 -0.9949958 -0.8276173 -0.5529959 -0.0961523 -0.2456816 -0.1641595 0.9553493 -0.7969459 -0.5325019 -0.2851648 -0.3978857 -0.2658584 0.8780697 -0.7364117 -0.4920543 -0.4643064 -0.5335811 -0.3565273 0.7669286 -0.6477151 -0.4327888 -0.6270239 -0.6477152 -0.4327889 0.6270238 -0.5335809 -0.3565273 -0.7669287 -0.7364117 -0.4920541 0.4643066 -0.3978855 -0.2658588 -0.8780698 -0.7969459 -0.5325023 0.2851641 -0.7640317 -0.1519751 -0.627024 -0.7640321 -0.1519754 0.6270236 -0.6294025 -0.1251958 -0.7669281 -0.8686569 -0.1727859 0.4643064 -0.4693383 -0.0933569 -0.8780696 -0.940062 -0.1869894 0.2851641 -0.2898021 -0.05764472 -0.9553492 -0.9762411 -0.1941861 0.09615194 -0.09799802 -0.0194931 0.9949957 -0.0979979 -0.01949304 -0.9949958 -0.9762411 -0.194186 -0.096152 -0.2898021 -0.05764508 0.9553491 -0.9400619 -0.1869896 -0.2851645 -0.4693384 -0.0933569 0.8780695 -0.8686568 -0.1727858 -0.4643064 -0.6294023 -0.1251954 0.7669283 -0.09799927 0.01949316 0.9949955 -0.0979979 0.0194931 -0.9949958 -0.976241 0.1941867 -0.09615218 -0.2898013 0.0576452 0.9553493 -0.9400617 0.1869902 -0.2851646 -0.4693384 0.09335732 0.8780694 -0.8686567 0.172787 -0.4643062 -0.6294018 0.1251962 0.7669286 -0.7640316 0.1519756 -0.627024 -0.7640319 0.1519762 0.6270236 -0.6294022 0.125196 -0.7669282 -0.8686566 0.1727867 0.4643067 -0.4693381 0.09335732 -0.8780697 -0.9400618 0.18699 0.2851642 -0.289802 0.05764514 -0.9553492 -0.976241 0.1941867 0.09615147 -0.6477147 0.4327894 0.6270239 -0.5335813 0.3565279 -0.7669282 -0.7364113 0.4920547 0.4643067 -0.397886 0.2658591 -0.8780693 -0.7969459 0.5325025 0.285164 -0.2456815 0.1641595 -0.9553493 -0.827617 0.5529965 0.09615069 -0.08307731 0.05551177 0.9949958 -0.08307838 0.05551165 -0.9949957 -0.8276172 0.5529962 -0.096152 -0.2456822 0.1641597 0.9553492 -0.7969453 0.5325027 -0.2851648 -0.3978855 0.2658589 0.8780696 -0.7364115 0.4920549 -0.4643061 -0.5335812 0.356528 0.7669283 -0.6477144 0.4327895 -0.6270242 -0.5529959 0.8276174 -0.09615194 -0.1641584 0.2456823 0.9553493 -0.5325021 0.7969462 -0.2851639 -0.2658582 0.397886 0.8780697 -0.4920542 0.7364118 -0.4643064 -0.3565276 0.5335811 0.7669285 -0.4327886 0.6477154 -0.6270237 -0.4327892 0.6477149 0.627024 -0.3565275 0.5335814 -0.7669283 -0.4920542 0.7364115 0.4643069 -0.2658592 0.3978859 -0.8780694 -0.5325021 0.7969461 0.285164 -0.1641618 0.2456819 -0.9553489 -0.5529959 0.8276175 0.09615021 -0.05551159 0.08307915 0.9949957 -0.05551135 0.08307904 -0.9949957 -0.125196 0.6294019 -0.7669284 -0.172787 0.8686566 0.4643062 -0.09335654 0.4693378 -0.8780698 -0.1869903 0.9400616 0.2851648 -0.0576452 0.2898014 -0.9553492 -0.1941873 0.9762409 0.09615105 -0.01949179 0.09799849 0.9949957 -0.01949328 0.09799838 -0.9949957 -0.1941871 0.9762409 -0.09615141 -0.05764508 0.2898021 0.9553492 -0.1869905 0.9400616 -0.2851645 -0.09335696 0.4693383 0.8780696 -0.1727873 0.8686568 -0.4643059 -0.125196 0.6294017 0.7669287 -0.1519756 0.7640315 -0.6270241 -0.1519761 0.7640312 0.6270244 0.1869899 0.9400618 -0.2851645 0.09335702 0.4693381 0.8780696 0.1727865 0.868657 -0.4643057 0.1251956 0.6294019 0.7669286 0.1519753 0.7640313 -0.6270246 0.151975 0.7640312 0.6270247 0.1251958 0.6294021 -0.7669283 0.1727866 0.8686572 0.4643055 0.09335696 0.469338 -0.8780698 0.1869899 0.9400618 0.2851641 0.05764555 0.2898016 -0.9553492 0.1941863 0.9762411 0.09615129 0.1941865 0.9762411 -0.09615093 0.05764508 0.289802 0.9553491 0.5529962 0.8276174 -0.09615063 0.1641599 0.2456823 0.9553491 0.532502 0.7969459 -0.2851648 0.2658585 0.3978856 0.8780696 0.4920548 0.7364116 -0.464306 0.3565279 0.5335811 0.7669284 0.4327892 0.6477145 -0.6270243 0.4327893 0.6477143 0.6270244 0.3565273 0.533581 -0.7669287 0.4920546 0.7364116 0.4643062 0.2658593 0.3978855 -0.8780695 0.5325022 0.796946 0.2851644 0.1641594 0.245682 -0.9553493 0.552996 0.8276174 0.09615129 0.5335809 0.3565275 -0.7669287 0.7364115 0.4920545 0.4643065 0.3978856 0.2658586 -0.8780696 0.7969459 0.532502 0.2851646 0.2456817 0.1641594 -0.9553493 0.8276172 0.5529961 0.09615159 0.8276174 0.552996 -0.09615117 0.245682 0.1641595 0.9553492 0.7969461 0.532502 -0.2851642 0.3978845 0.2658585 0.8780701 0.7364118 0.4920543 -0.4643063 0.5335811 0.3565275 0.7669285 0.6477147 0.4327887 -0.6270244 0.6477147 0.432789 0.6270242 0.2898021 0.05764508 0.9553491 0.9400619 0.1869896 -0.2851644 0.4693383 0.09335708 0.8780696 0.8686566 0.1727865 -0.4643065 0.6294016 0.1251957 0.7669287 0.7640316 0.1519757 -0.6270241 0.7640315 0.1519746 0.6270244 0.6294017 0.1251958 -0.7669287 0.8686566 0.1727865 0.4643064 0.4693385 0.0933569 -0.8780694 0.9400616 0.1869899 0.2851647 0.2898015 0.05764502 -0.9553492 0.9762411 0.1941863 0.09615123 0.9762412 0.1941861 -0.09615123 0.8686564 -0.172787 0.4643067 0.4693376 -0.09335726 -0.8780698 0.9400618 -0.1869899 0.2851645 0.2898015 -0.05764526 -0.9553492 0.9762411 -0.1941866 0.09615135 0.9762411 -0.1941864 -0.09615135 0.2898017 -0.05764508 0.9553492 0.9400618 -0.1869899 -0.2851642 0.4693379 -0.09335732 0.8780698 0.8686568 -0.1727864 -0.4643065 0.6294019 -0.125196 0.7669284 0.7640317 -0.1519753 -0.627024 0.7640316 -0.1519755 0.6270242 0.629401 -0.125196 -0.7669293 0.7969456 -0.5325027 -0.2851642 0.3978847 -0.2658589 0.8780701 0.7364113 -0.4920544 -0.4643068 0.5335811 -0.3565273 0.7669287 0.6477149 -0.4327893 -0.6270238 0.6477147 -0.4327892 0.6270242 0.5335805 -0.3565276 -0.766929 0.736411 -0.4920542 0.4643074 0.3978857 -0.2658587 -0.8780696 0.7969459 -0.5325021 0.2851641 0.2456818 -0.1641594 -0.9553492 0.8276172 -0.5529961 0.09615135 0.8276171 -0.5529963 -0.09615182 0.2456828 -0.1641597 0.9553489 0.2658581 -0.3978854 -0.8780699 0.5325022 -0.7969462 0.2851637 0.164159 -0.245682 -0.9553493 0.5529959 -0.8276174 0.09615194 0.552996 -0.8276174 -0.09615153 0.1641583 -0.2456824 0.9553493 0.5325018 -0.7969461 -0.2851645 0.2658581 -0.3978853 0.8780699 0.492054 -0.7364114 -0.4643072 0.3565275 -0.5335811 0.7669286 0.432789 -0.647715 -0.6270239 0.4327885 -0.6477152 0.6270241 0.3565272 -0.533581 -0.7669287 0.4920541 -0.7364115 0.464307 0.0933569 -0.4693381 0.8780698 0.1727861 -0.8686566 -0.4643066 0.1251955 -0.6294016 0.7669288 0.1519752 -0.7640318 -0.627024 0.1519749 -0.7640321 0.6270237 0.1251953 -0.6294016 -0.7669287 0.1727862 -0.8686565 0.4643069 0.09335684 -0.4693381 -0.8780697 0.1869897 -0.9400617 0.2851645 0.05764514 -0.2898016 -0.9553492 0.194186 -0.9762411 0.09615194 0.194186 -0.9762411 -0.09615212 0.05764597 -0.2898021 0.955349 0.1869896 -0.9400621 -0.2851639 -0.1869902 -0.940062 0.2851637 -0.05764555 -0.2898015 -0.9553492 -0.1941867 -0.9762409 0.0961526 -0.1941867 -0.976241 -0.09615182 -0.05764532 -0.2898019 0.9553491 -0.1869902 -0.9400618 -0.285164 -0.0933569 -0.469338 0.8780698 -0.172787 -0.8686568 -0.4643061 -0.1251961 -0.629402 0.7669284 -0.1519757 -0.7640317 -0.627024 -0.1519758 -0.7640319 0.6270236 -0.125196 -0.6294015 -0.7669289 -0.1727867 -0.868656 0.4643074 -0.09335738 -0.4693378 -0.8780698 -0.492055 -0.7364113 -0.4643062 -0.3565276 -0.5335808 0.7669287 -0.4327895 -0.6477147 -0.6270239 -0.4327893 -0.6477151 0.6270237 -0.3565278 -0.533581 -0.7669286 -0.4920542 -0.7364111 0.4643076 -0.2658591 -0.3978854 -0.8780695 -0.5325027 -0.7969458 0.2851641 -0.1641589 -0.2456819 -0.9553493 -0.5529964 -0.8276168 0.09615325 -0.5529965 -0.827617 -0.09615159 -0.1641598 -0.2456821 0.9553491 -0.5325026 -0.7969459 -0.2851635 -0.2658584 -0.3978855 0.8780698 -0.2456829 -0.1641593 -0.955349 -0.8276173 -0.5529959 0.0961523 -0.8276174 -0.5529958 -0.0961517 -0.2456819 -0.1641594 0.9553492 -0.7969461 -0.5325023 -0.2851637 -0.3978862 -0.2658585 0.8780694 -0.7364121 -0.492054 -0.4643061 -0.6477152 -0.4327889 -0.6270238 -0.6477151 -0.4327888 0.6270239 -0.5335813 -0.3565273 -0.7669284 -0.7364115 -0.4920541 0.4643068 -0.3978861 -0.2658585 -0.8780694 -0.7969462 -0.5325019 0.2851642 -0.7640321 -0.1519754 -0.6270236 -0.7640317 -0.1519751 0.627024 -0.6294016 -0.1251952 -0.7669289 -0.8686567 -0.1727859 0.4643067 -0.4693382 -0.09335684 -0.8780696 -0.9400618 -0.1869896 0.2851644 -0.2898015 -0.05764502 -0.9553493 -0.9762411 -0.194186 0.096152 -0.9762411 -0.1941861 -0.09615194 -0.2898025 -0.05764484 0.955349 -0.9400619 -0.1869894 -0.2851642 -0.4693375 -0.09335714 0.8780699 -0.868657 -0.1727861 -0.4643059 -0.6294019 -0.1251956 0.7669285 -0.976241 0.1941868 -0.09615147 -0.2898024 0.05764526 0.955349 -0.9400618 0.18699 -0.2851642 -0.4693386 0.09335714 0.8780694 -0.8686568 0.1727866 -0.4643062 -0.6294019 0.1251961 0.7669284 -0.7640319 0.1519762 -0.6270236 -0.7640316 0.1519756 0.627024 -0.6294016 0.1251962 -0.7669287 -0.8686564 0.1727866 0.4643069 -0.4693386 0.09335726 -0.8780694 -0.9400618 0.1869899 0.2851643 -0.2898015 0.05764514 -0.9553493 -0.9762409 0.1941866 0.09615218 -0.6477144 0.4327895 0.6270242 -0.533581 0.3565281 -0.7669283 -0.7364113 0.4920546 0.4643067 -0.3978853 0.2658588 -0.8780697 -0.7969457 0.5325026 0.2851645 -0.2456817 0.1641595 -0.9553493 -0.8276172 0.5529962 0.096152 -0.827617 0.5529965 -0.09615069 -0.2456827 0.1641596 0.955349 -0.7969459 0.5325022 -0.2851644 -0.3978855 0.2658588 0.8780698 -0.7364116 0.4920549 -0.4643059 -0.5335811 0.3565279 0.7669284 -0.6477147 0.4327894 -0.6270239 -0.5529959 0.8276175 -0.09615021 -0.1641615 0.2456822 0.9553488 -0.5325021 0.7969459 -0.2851647 -0.2658593 0.3978857 0.8780694 -0.4920542 0.7364117 -0.4643065 -0.3565275 0.5335817 0.7669282 -0.4327892 0.6477149 -0.627024 -0.4327886 0.6477154 0.6270237 -0.3565275 0.5335814 -0.7669284 -0.492054 0.7364116 0.4643069 -0.2658584 0.3978858 -0.8780697 -0.5325021 0.7969462 0.285164 -0.1641581 0.245682 -0.9553495 -0.5529959 0.8276174 0.09615194 -0.1251965 0.6294021 -0.7669283 -0.1727873 0.8686564 0.4643067 -0.09335756 0.4693381 -0.8780696 -0.1869903 0.9400617 0.2851645 -0.0576452 0.2898015 -0.9553492 -0.1941869 0.976241 0.09615075 -0.1941873 0.976241 -0.09615039 -0.0576443 0.2898018 0.9553492 -0.1869905 0.9400615 -0.2851648 -0.09335589 0.4693382 0.8780698 -0.1727871 0.8686565 -0.4643065 -0.1251954 0.6294015 0.7669289 -0.1519761 0.7640312 -0.6270244 -0.1519756 0.7640315 0.6270241</float_array>
          <technique_common>
            <accessor source="#Sphere-mesh-normals-array" count="479" stride="3">
              <param name="X" type="float"/>
              <param name="Y" type="float"/>
              <param name="Z" type="float"/>
            </accessor>
          </technique_common>
        </source>
        <vertices id="Sphere-mesh-vertices">
          <input semantic="POSITION" source="#Sphere-mesh-positions"/>
        </vertices>
        <triangles material="Material_001-material" count="480">
          <input semantic="VERTEX" source="#Sphere-mesh-vertices" offset="0"/>
          <input semantic="NORMAL" source="#Sphere-mesh-normals" offset="1"/>
          <p>6 0 22 0 7 0 241 1 14 1 15 1 7 2 23 2 8 2 241 3 16 3 1 3 8 4 24 4 9 4 2 5 16 5 17 5 9 6 25 6 10 6 2 7 18 7 3 7 11 8 25 8 26 8 3 9 19 9 4 9 12 10 26 10 27 10 5 11 19 11 20 11 0 12 118 12 13 12 134 13 12 13 27 13 6 14 20 14 21 14 240 15 13 15 14 15 134 16 27 16 42 16 20 17 36 17 21 17 13 18 29 18 14 18 21 19 37 19 22 19 14 20 30 20 15 20 22 21 38 21 23 21 15 22 31 22 16 22 24 23 38 23 39 23 16 24 32 24 17 24 25 25 39 25 40 25 18 26 32 26 33 26 25 27 41 27 26 27 18 28 34 28 19 28 26 29 42 29 27 29 20 30 34 30 35 30 13 31 118 31 28 31 39 32 55 32 40 32 33 33 47 33 48 33 41 34 55 34 56 34 33 35 49 35 34 35 41 36 57 36 42 36 35 37 49 37 50 37 28 38 118 38 43 38 134 39 42 39 57 39 35 40 51 40 36 40 28 41 44 41 29 41 37 42 51 42 52 42 30 43 44 43 45 43 37 44 53 44 38 44 31 45 45 45 46 45 39 46 53 46 54 46 31 47 47 47 32 47 43 48 59 48 44 48 52 49 66 49 67 49 44 50 60 50 45 50 52 51 68 51 53 51 45 52 61 52 46 52 54 53 68 53 69 53 46 54 62 54 47 54 54 55 70 55 55 55 48 56 62 56 63 56 56 57 70 57 71 57 48 58 64 58 49 58 57 59 71 59 72 59 50 60 64 60 65 60 43 61 118 61 58 61 134 62 57 62 72 62 50 63 66 63 51 63 63 64 77 64 78 64 71 65 85 65 86 65 63 66 79 66 64 66 72 67 86 67 87 67 65 68 79 68 80 68 58 69 118 69 73 69 134 70 72 70 87 70 65 71 81 71 66 71 58 72 74 72 59 72 67 73 81 73 82 73 60 74 74 74 75 74 67 75 83 75 68 75 60 76 76 76 61 76 69 77 83 77 84 77 61 78 77 78 62 78 70 79 84 79 85 79 82 80 96 80 97 80 74 81 90 81 75 81 82 82 98 82 83 82 75 83 91 83 76 83 84 84 98 84 99 84 76 85 92 85 77 85 84 86 100 86 85 86 77 87 93 87 78 87 86 88 100 88 101 88 78 89 94 89 79 89 86 90 102 90 87 90 80 91 94 91 95 91 73 92 118 92 88 92 134 93 87 93 102 93 80 94 96 94 81 94 74 95 88 95 89 95 100 96 116 96 101 96 93 97 109 97 94 97 102 98 116 98 117 98 95 99 109 99 110 99 88 100 118 100 103 100 134 101 102 101 117 101 95 102 111 102 96 102 88 103 104 103 89 103 97 104 111 104 112 104 90 105 104 105 105 105 97 106 113 106 98 106 90 107 106 107 91 107 99 108 113 108 114 108 91 109 107 109 92 109 100 110 114 110 115 110 92 111 108 111 93 111 105 112 120 112 121 112 113 113 128 113 129 113 105 114 122 114 106 114 114 115 129 115 130 115 106 116 123 116 107 116 115 117 130 117 131 117 107 118 124 118 108 118 115 119 132 119 116 119 108 120 125 120 109 120 116 121 133 121 117 121 110 122 125 122 126 122 103 123 118 123 119 123 134 124 117 124 133 124 110 125 127 125 111 125 104 126 119 126 120 126 112 127 127 127 128 127 124 128 141 128 125 128 133 129 148 129 149 129 126 130 141 130 142 130 119 131 118 131 135 131 134 132 133 132 149 132 126 133 143 133 127 133 120 134 135 134 136 134 128 135 143 135 144 135 121 136 136 136 137 136 129 137 144 137 145 137 121 138 138 138 122 138 130 139 145 139 146 139 122 140 139 140 123 140 131 141 146 141 147 141 123 142 140 142 124 142 131 143 148 143 132 143 145 144 159 144 160 144 137 145 153 145 138 145 146 146 160 146 161 146 138 147 154 147 139 147 146 148 162 148 147 148 139 149 155 149 140 149 148 150 162 150 163 150 140 151 156 151 141 151 149 152 163 152 164 152 142 153 156 153 157 153 135 154 118 154 150 154 134 155 149 155 164 155 142 156 158 156 143 156 135 157 151 157 136 157 144 158 158 158 159 158 137 159 151 159 152 159 163 160 179 160 164 160 157 161 171 161 172 161 150 162 118 162 165 162 134 163 164 163 179 163 157 164 173 164 158 164 150 165 166 165 151 165 159 166 173 166 174 166 152 167 166 167 167 167 160 168 174 168 175 168 152 169 168 169 153 169 161 170 175 170 176 170 153 171 169 171 154 171 161 172 177 172 162 172 154 173 170 173 155 173 163 174 177 174 178 174 155 175 171 175 156 175 176 176 190 176 191 176 168 177 184 177 169 177 177 178 191 178 192 178 169 179 185 179 170 179 178 180 192 180 193 180 170 181 186 181 171 181 179 182 193 182 194 182 172 183 186 183 187 183 165 184 118 184 180 184 134 185 179 185 194 185 172 186 188 186 173 186 165 187 181 187 166 187 174 188 188 188 189 188 166 189 182 189 167 189 175 190 189 190 190 190 167 191 183 191 168 191 180 192 118 192 195 192 134 193 194 193 209 193 187 194 203 194 188 194 181 195 195 195 196 195 189 196 203 196 204 196 181 197 197 197 182 197 190 198 204 198 205 198 182 199 198 199 183 199 191 200 205 200 206 200 183 201 199 201 184 201 192 202 206 202 207 202 184 203 200 203 185 203 193 204 207 204 208 204 185 205 201 205 186 205 193 206 209 206 194 206 187 207 201 207 202 207 198 208 214 208 199 208 206 209 222 209 207 209 199 210 215 210 200 210 208 211 222 211 223 211 200 212 216 212 201 212 208 213 224 213 209 213 202 214 216 214 217 214 195 215 118 215 210 215 134 216 209 216 224 216 202 217 218 217 203 217 195 218 211 218 196 218 204 219 218 219 219 219 196 220 212 220 197 220 205 221 219 221 220 221 198 222 212 222 213 222 206 223 220 223 221 223 217 224 233 224 218 224 210 225 226 225 211 225 219 226 233 226 234 226 211 227 227 227 212 227 219 228 235 228 220 228 213 229 227 229 228 229 221 230 235 230 236 230 213 231 229 231 214 231 221 232 237 232 222 232 214 233 230 233 215 233 223 234 237 234 238 234 215 235 231 235 216 235 224 236 238 236 239 236 217 237 231 237 232 237 210 238 118 238 225 238 134 239 224 239 239 239 236 240 10 240 237 240 230 241 2 241 3 241 237 242 11 242 238 242 230 243 4 243 231 243 238 244 12 244 239 244 232 245 4 245 5 245 225 246 118 246 0 246 134 247 239 247 12 247 232 248 6 248 233 248 226 249 0 249 240 249 234 250 6 250 7 250 226 251 241 251 227 251 234 252 8 252 235 252 227 253 1 253 228 253 235 254 9 254 236 254 229 255 1 255 2 255 6 256 21 256 22 256 241 257 240 257 14 257 7 258 22 258 23 258 241 259 15 259 16 259 8 260 23 260 24 260 2 261 1 261 16 261 9 262 24 262 25 262 2 263 17 263 18 263 11 264 10 264 25 264 3 265 18 265 19 265 12 266 11 266 26 266 5 267 4 267 19 267 6 268 5 268 20 268 240 269 0 269 13 269 20 270 35 270 36 270 13 271 28 271 29 271 21 272 36 272 37 272 14 273 29 273 30 273 22 274 37 274 38 274 15 275 30 275 31 275 24 276 23 276 38 276 16 277 31 277 32 277 25 278 24 278 39 278 18 279 17 279 32 279 25 280 40 280 41 280 18 281 33 281 34 281 26 282 41 282 42 282 20 283 19 283 34 283 39 284 54 284 55 284 33 285 32 285 47 285 41 286 40 286 55 286 33 287 48 287 49 287 41 288 56 288 57 288 35 289 34 289 49 289 35 290 50 290 51 290 28 291 43 291 44 291 37 292 36 292 51 292 30 293 29 293 44 293 37 294 52 294 53 294 31 295 30 295 45 295 39 296 38 296 53 296 31 297 46 297 47 297 43 298 58 298 59 298 52 299 51 299 66 299 44 300 59 300 60 300 52 301 67 301 68 301 45 302 60 302 61 302 54 303 53 303 68 303 46 304 61 304 62 304 54 305 69 305 70 305 48 306 47 306 62 306 56 307 55 307 70 307 48 308 63 308 64 308 57 309 56 309 71 309 50 310 49 310 64 310 50 311 65 311 66 311 63 312 62 312 77 312 71 313 70 313 85 313 63 314 78 314 79 314 72 315 71 315 86 315 65 316 64 316 79 316 65 317 80 317 81 317 58 318 73 318 74 318 67 319 66 319 81 319 60 320 59 320 74 320 67 321 82 321 83 321 60 322 75 322 76 322 69 323 68 323 83 323 61 324 76 324 77 324 70 325 69 325 84 325 82 326 81 326 96 326 74 327 89 327 90 327 82 328 97 328 98 328 75 329 90 329 91 329 84 330 83 330 98 330 76 331 91 331 92 331 84 332 99 332 100 332 77 333 92 333 93 333 86 334 85 334 100 334 78 335 93 335 94 335 86 336 101 336 102 336 80 337 79 337 94 337 80 338 95 338 96 338 74 339 73 339 88 339 100 340 115 340 116 340 93 341 108 341 109 341 102 342 101 342 116 342 95 343 94 343 109 343 95 344 110 344 111 344 88 345 103 345 104 345 97 346 96 346 111 346 90 347 89 347 104 347 97 348 112 348 113 348 90 349 105 349 106 349 99 350 98 350 113 350 91 351 106 351 107 351 100 352 99 352 114 352 92 353 107 353 108 353 105 354 104 354 120 354 113 355 112 355 128 355 105 356 121 356 122 356 114 357 113 357 129 357 106 358 122 358 123 358 115 359 114 359 130 359 107 360 123 360 124 360 115 361 131 361 132 361 108 362 124 362 125 362 116 363 132 363 133 363 110 364 109 364 125 364 110 365 126 365 127 365 104 366 103 366 119 366 112 367 111 367 127 367 124 368 140 368 141 368 133 369 132 369 148 369 126 370 125 370 141 370 126 371 142 371 143 371 120 372 119 372 135 372 128 373 127 373 143 373 121 374 120 374 136 374 129 375 128 375 144 375 121 376 137 376 138 376 130 377 129 377 145 377 122 378 138 378 139 378 131 379 130 379 146 379 123 380 139 380 140 380 131 381 147 381 148 381 145 382 144 382 159 382 137 383 152 383 153 383 146 384 145 384 160 384 138 385 153 385 154 385 146 386 161 386 162 386 139 387 154 387 155 387 148 388 147 388 162 388 140 389 155 389 156 389 149 390 148 390 163 390 142 391 141 391 156 391 142 392 157 392 158 392 135 393 150 393 151 393 144 394 143 394 158 394 137 395 136 395 151 395 163 396 178 396 179 396 157 397 156 397 171 397 157 398 172 398 173 398 150 399 165 399 166 399 159 400 158 400 173 400 152 401 151 401 166 401 160 402 159 402 174 402 152 169 167 169 168 169 161 403 160 403 175 403 153 404 168 404 169 404 161 405 176 405 177 405 154 406 169 406 170 406 163 407 162 407 177 407 155 408 170 408 171 408 176 409 175 409 190 409 168 410 183 410 184 410 177 411 176 411 191 411 169 412 184 412 185 412 178 413 177 413 192 413 170 414 185 414 186 414 179 415 178 415 193 415 172 416 171 416 186 416 172 417 187 417 188 417 165 418 180 418 181 418 174 419 173 419 188 419 166 420 181 420 182 420 175 421 174 421 189 421 167 422 182 422 183 422 187 423 202 423 203 423 181 424 180 424 195 424 189 425 188 425 203 425 181 426 196 426 197 426 190 427 189 427 204 427 182 428 197 428 198 428 191 429 190 429 205 429 183 430 198 430 199 430 192 431 191 431 206 431 184 432 199 432 200 432 193 433 192 433 207 433 185 434 200 434 201 434 193 435 208 435 209 435 187 436 186 436 201 436 198 437 213 437 214 437 206 438 221 438 222 438 199 439 214 439 215 439 208 440 207 440 222 440 200 441 215 441 216 441 208 442 223 442 224 442 202 443 201 443 216 443 202 444 217 444 218 444 195 445 210 445 211 445 204 446 203 446 218 446 196 447 211 447 212 447 205 448 204 448 219 448 198 449 197 449 212 449 206 450 205 450 220 450 217 451 232 451 233 451 210 452 225 452 226 452 219 453 218 453 233 453 211 454 226 454 227 454 219 455 234 455 235 455 213 456 212 456 227 456 221 457 220 457 235 457 213 458 228 458 229 458 221 459 236 459 237 459 214 460 229 460 230 460 223 461 222 461 237 461 215 462 230 462 231 462 224 463 223 463 238 463 217 464 216 464 231 464 236 465 9 465 10 465 230 466 229 466 2 466 237 467 10 467 11 467 230 468 3 468 4 468 238 469 11 469 12 469 232 470 231 470 4 470 232 471 5 471 6 471 226 472 225 472 0 472 234 473 233 473 6 473 226 474 240 474 241 474 234 475 7 475 8 475 227 476 241 476 1 476 235 477 8 477 9 477 229 478 228 478 1 478</p>
        </triangles>
      </mesh>
    </geometry>
  </library_geometries>
  <library_controllers/>
  <library_visual_scenes>
    <visual_scene id="Scene" name="Scene">
      <node id="Sphere" name="Sphere" type="NODE">
        <matrix sid="transform">1 0 0 0 0 1 0 0 0 0 1 0 0 0 0 1</matrix>
        <instance_geometry url="#Sphere-mesh" name="Sphere">
          <bind_material>
            <technique_common>
              <instance_material symbol="Material_001-material" target="#Material_001-material"/>
            </technique_common>
          </bind_material>
        </instance_geometry>
      </node>
    </visual_scene>
  </library_visual_scenes>
  <scene>
    <instance_visual_scene url="#Scene"/>
  </scene>
</COLLADA>